%!PS-Adobe-3.0 EPSF-3.0 
%%BoundingBox: 0 0 197 214
%%Pages: 0
%%Creator: LibreOffice 5.1
%%Title: none
%%CreationDate: none
%%LanguageLevel: 2
%%EndComments
%%BeginProlog
%%BeginResource: procset SDRes-Prolog 1.0 0
/b4_inc_state save def
/dict_count countdictstack def
/op_count count 1 sub def
userdict begin
0 setgray 0 setlinecap 1 setlinewidth 0 setlinejoin 10 setmiterlimit[] 0 setdash newpath
/languagelevel where {pop languagelevel 1 ne {false setstrokeadjust false setoverprint} if} if
/bdef {bind def} bind def
/c {setrgbcolor} bdef
/l {neg lineto} bdef
/rl {neg rlineto} bdef
/lc {setlinecap} bdef
/lj {setlinejoin} bdef
/lw {setlinewidth} bdef
/ml {setmiterlimit} bdef
/ld {setdash} bdef
/m {neg moveto} bdef
/ct {6 2 roll neg 6 2 roll neg 6 2 roll neg curveto} bdef
/r {rotate} bdef
/t {neg translate} bdef
/s {scale} bdef
/sw {show} bdef
/gs {gsave} bdef
/gr {grestore} bdef
/f {findfont dup length dict begin
{1 index /FID ne {def} {pop pop} ifelse} forall /Encoding ISOLatin1Encoding def
currentdict end /NFont exch definefont pop /NFont findfont} bdef
/p {closepath} bdef
/sf {scalefont setfont} bdef
/ef {eofill}bdef
/pc {closepath stroke}bdef
/ps {stroke}bdef
/pum {matrix currentmatrix}bdef
/pom {setmatrix}bdef
/bs {/aString exch def /nXOfs exch def /nWidth exch def currentpoint nXOfs 0 rmoveto pum nWidth aString stringwidth pop div 1 scale aString show pom moveto} bdef
%%EndResource
%%EndProlog
%%BeginSetup
%%EndSetup
%%Page: 1 1
%%BeginPageSetup
%%EndPageSetup
pum
0.02839 0.02839 s 
0 -7537 t
/tm matrix currentmatrix def
tm setmatrix
-6919 -10555 t 
1 1 s 
0.449 0.625 0.812 c 7237 10556 m  7417 10556 7555 10693 7555 10873 ct 7555 11053 7417 11191 7237 11191 ct 
7057 11191 6920 11053 6920 10873 ct 6920 10693 7057 10556 7237 10556 ct p
6920 10556 m  6920 10556 l  p
7556 11192 m  7556 11192 l  p ef
0 lw 1 lj 0.207 0.398 0.644 c 7236 10556 m  7416 10556 7554 10693 7554 10873 ct 
7554 11053 7416 11191 7236 11191 ct 7056 11191 6920 11053 6920 10873 ct 6920 10693 7056 10556 7236 10556 ct 
pc
6920 10556 m  6920 10556 l  pc
7555 11192 m  7555 11192 l  pc
pum
7000 11022 t
0.003 0.003 0.003 c 219 -146 m  219 -118 216 -94 211 -75 ct 205 -56 198 -41 189 -29 ct 
180 -17 169 -9 157 -4 ct 144 1 131 4 117 4 ct 103 4 90 1 77 -4 ct 65 -9 55 -17 46 -29 ct 
37 -41 29 -56 24 -75 ct 19 -94 17 -118 17 -146 ct 17 -175 19 -200 24 -219 ct 29 -238 37 -254 46 -265 ct 
55 -276 65 -284 78 -289 ct 90 -294 104 -296 118 -296 ct 132 -296 145 -294 157 -289 ct 
170 -284 180 -276 189 -265 ct 198 -254 206 -238 211 -219 ct 216 -200 219 -175 219 -146 ct 
p
181 -146 m  181 -169 180 -188 177 -204 ct 174 -219 170 -231 165 -241 ct 159 -250 153 -256 145 -260 ct 
137 -264 128 -266 118 -266 ct 108 -266 99 -264 91 -260 ct 83 -256 76 -250 71 -240 ct 
65 -231 61 -219 58 -204 ct 55 -188 54 -169 54 -146 ct 54 -124 56 -105 58 -90 ct 
61 -74 65 -62 71 -53 ct 76 -43 83 -37 91 -33 ct 99 -28 107 -26 118 -26 ct 127 -26 136 -28 144 -33 ct 
152 -37 158 -43 164 -53 ct 169 -62 174 -74 176 -90 ct 179 -105 181 -124 181 -146 ct 
p ef
456 -146 m  456 -118 453 -94 448 -75 ct 442 -56 435 -41 426 -29 ct 417 -17 406 -9 394 -4 ct 
381 1 368 4 354 4 ct 340 4 327 1 314 -4 ct 302 -9 292 -17 283 -29 ct 274 -41 266 -56 261 -75 ct 
256 -94 254 -118 254 -146 ct 254 -175 256 -200 261 -219 ct 266 -238 274 -254 283 -265 ct 
292 -276 302 -284 315 -289 ct 327 -294 341 -296 355 -296 ct 369 -296 382 -294 394 -289 ct 
407 -284 417 -276 426 -265 ct 435 -254 443 -238 448 -219 ct 453 -200 456 -175 456 -146 ct 
p
418 -146 m  418 -169 417 -188 414 -204 ct 411 -219 407 -231 402 -241 ct 396 -250 390 -256 382 -260 ct 
374 -264 365 -266 355 -266 ct 345 -266 336 -264 328 -260 ct 320 -256 313 -250 308 -240 ct 
302 -231 298 -219 295 -204 ct 292 -188 291 -169 291 -146 ct 291 -124 293 -105 295 -90 ct 
298 -74 302 -62 308 -53 ct 313 -43 320 -37 328 -33 ct 336 -28 344 -26 355 -26 ct 
364 -26 373 -28 381 -33 ct 389 -37 395 -43 401 -53 ct 406 -62 411 -74 413 -90 ct 
416 -105 418 -124 418 -146 ct p ef
pom
0.449 0.625 0.812 c 8537 10556 m  8716 10556 8854 10693 8854 10873 ct 8854 11053 8716 11191 8537 11191 ct 
8357 11191 8220 11053 8220 10873 ct 8220 10693 8357 10556 8537 10556 ct p
8220 10556 m  8220 10556 l  p
8855 11192 m  8855 11192 l  p ef
0.207 0.398 0.644 c 8536 10556 m  8716 10556 8854 10693 8854 10873 ct 8854 11053 8716 11191 8536 11191 ct 
8356 11191 8219 11053 8219 10873 ct 8219 10693 8356 10556 8536 10556 ct pc
8219 10556 m  8219 10556 l  pc
8855 11192 m  8855 11192 l  pc
pum
8300 11022 t
0.003 0.003 0.003 c 32 0 m  32 -32 l  106 -32 l  106 -256 l  41 -209 l  41 -244 l 
109 -292 l  144 -292 l  144 -32 l  215 -32 l  215 0 l  32 0 l  p ef
456 -146 m  456 -118 453 -94 448 -75 ct 442 -56 435 -41 426 -29 ct 417 -17 406 -9 394 -4 ct 
381 1 368 4 354 4 ct 340 4 327 1 314 -4 ct 302 -9 292 -17 283 -29 ct 274 -41 266 -56 261 -75 ct 
256 -94 254 -118 254 -146 ct 254 -175 256 -200 261 -219 ct 266 -238 274 -254 283 -265 ct 
292 -276 302 -284 315 -289 ct 327 -294 341 -296 355 -296 ct 369 -296 382 -294 394 -289 ct 
407 -284 417 -276 426 -265 ct 435 -254 443 -238 448 -219 ct 453 -200 456 -175 456 -146 ct 
p
418 -146 m  418 -169 417 -188 414 -204 ct 411 -219 407 -231 402 -241 ct 396 -250 390 -256 382 -260 ct 
374 -264 365 -266 355 -266 ct 345 -266 336 -264 328 -260 ct 320 -256 313 -250 308 -240 ct 
302 -231 298 -219 295 -204 ct 292 -188 291 -169 291 -146 ct 291 -124 293 -105 295 -90 ct 
298 -74 302 -62 308 -53 ct 313 -43 320 -37 328 -33 ct 336 -28 344 -26 355 -26 ct 
364 -26 373 -28 381 -33 ct 389 -37 395 -43 401 -53 ct 406 -62 411 -74 413 -90 ct 
416 -105 418 -124 418 -146 ct p ef
pom
0.449 0.625 0.812 c 9736 10556 m  9916 10556 10054 10693 10054 10873 ct 10054 11053 9916 11191 9736 11191 ct 
9556 11191 9419 11053 9419 10873 ct 9419 10693 9556 10556 9736 10556 ct p
9419 10556 m  9419 10556 l  p
10055 11192 m  10055 11192 l  p ef
0.207 0.398 0.644 c 9736 10556 m  9916 10556 10054 10693 10054 10873 ct 10054 11053 9916 11191 9736 11191 ct 
9556 11191 9419 11053 9419 10873 ct 9419 10693 9556 10556 9736 10556 ct pc
9419 10556 m  9419 10556 l  pc
10055 11192 m  10055 11192 l  pc
pum
9499 11022 t
0.003 0.003 0.003 c 21 0 m  21 -26 l  28 -42 37 -57 47 -69 ct 57 -81 68 -93 79 -103 ct 
90 -113 101 -122 112 -130 ct 123 -139 133 -148 142 -156 ct 151 -165 158 -174 163 -183 ct 
169 -192 171 -203 171 -215 ct 171 -223 170 -230 168 -237 ct 165 -243 161 -248 157 -253 ct 
152 -257 146 -260 140 -262 ct 133 -264 126 -265 118 -265 ct 111 -265 104 -264 97 -262 ct 
91 -260 85 -257 80 -253 ct 75 -249 70 -244 67 -238 ct 64 -231 62 -224 61 -216 ct 
23 -220 l  24 -230 27 -240 32 -249 ct 36 -258 42 -267 50 -274 ct 58 -281 68 -286 79 -290 ct 
90 -294 103 -296 118 -296 ct 133 -296 145 -294 157 -291 ct 168 -287 178 -282 185 -276 ct 
193 -269 199 -260 203 -250 ct 207 -241 209 -229 209 -216 ct 209 -206 208 -197 204 -188 ct 
201 -179 196 -171 190 -163 ct 184 -155 177 -147 170 -140 ct 162 -132 154 -125 146 -118 ct 
137 -111 129 -104 120 -97 ct 112 -90 104 -83 96 -76 ct 89 -69 82 -62 76 -54 ct 
70 -47 65 -40 62 -32 ct 214 -32 l  214 0 l  21 0 l  p ef
456 -146 m  456 -118 453 -94 448 -75 ct 442 -56 435 -41 426 -29 ct 417 -17 406 -9 394 -4 ct 
381 1 368 4 354 4 ct 340 4 327 1 314 -4 ct 302 -9 292 -17 283 -29 ct 274 -41 266 -56 261 -75 ct 
256 -94 254 -118 254 -146 ct 254 -175 256 -200 261 -219 ct 266 -238 274 -254 283 -265 ct 
292 -276 302 -284 315 -289 ct 327 -294 341 -296 355 -296 ct 369 -296 382 -294 394 -289 ct 
407 -284 417 -276 426 -265 ct 435 -254 443 -238 448 -219 ct 453 -200 456 -175 456 -146 ct 
p
418 -146 m  418 -169 417 -188 414 -204 ct 411 -219 407 -231 402 -241 ct 396 -250 390 -256 382 -260 ct 
374 -264 365 -266 355 -266 ct 345 -266 336 -264 328 -260 ct 320 -256 313 -250 308 -240 ct 
302 -231 298 -219 295 -204 ct 292 -188 291 -169 291 -146 ct 291 -124 293 -105 295 -90 ct 
298 -74 302 -62 308 -53 ct 313 -43 320 -37 328 -33 ct 336 -28 344 -26 355 -26 ct 
364 -26 373 -28 381 -33 ct 389 -37 395 -43 401 -53 ct 406 -62 411 -74 413 -90 ct 
416 -105 418 -124 418 -146 ct p ef
pom
0.449 0.625 0.812 c 10936 10556 m  11116 10556 11254 10693 11254 10873 ct 
11254 11053 11116 11191 10936 11191 ct 10756 11191 10619 11053 10619 10873 ct 
10619 10693 10756 10556 10936 10556 ct p
10619 10556 m  10619 10556 l  p
11255 11192 m  11255 11192 l  p ef
0.207 0.398 0.644 c 10935 10556 m  11115 10556 11253 10693 11253 10873 ct 
11253 11053 11115 11191 10935 11191 ct 10755 11191 10618 11053 10618 10873 ct 
10618 10693 10755 10556 10935 10556 ct pc
10618 10556 m  10618 10556 l  pc
11254 11192 m  11254 11192 l  pc
pum
10699 11022 t
0.003 0.003 0.003 c 217 -80 m  217 -67 214 -55 210 -45 ct 206 -34 199 -25 191 -18 ct 
183 -11 173 -5 160 -2 ct 148 2 134 4 118 4 ct 100 4 85 2 72 -3 ct 60 -7 50 -13 42 -20 ct 
34 -28 28 -36 24 -46 ct 20 -55 17 -65 16 -75 ct 55 -78 l  56 -71 58 -64 61 -57 ct 
64 -51 68 -46 73 -41 ct 78 -37 84 -33 92 -31 ct 99 -28 108 -27 118 -27 ct 137 -27 151 -31 162 -41 ct 
173 -50 178 -64 178 -82 ct 178 -92 176 -101 171 -108 ct 166 -114 160 -119 153 -123 ct 
146 -126 138 -129 130 -130 ct 122 -131 114 -132 107 -132 ct 86 -132 l  86 -164 l 
106 -164 l  113 -164 120 -165 128 -166 ct 136 -168 143 -171 149 -174 ct 155 -178 160 -183 164 -190 ct 
168 -196 170 -205 170 -215 ct 170 -230 166 -243 157 -252 ct 148 -261 134 -265 116 -265 ct 
99 -265 86 -261 76 -253 ct 66 -244 60 -232 58 -217 ct 21 -220 l  23 -233 26 -244 32 -254 ct 
37 -263 44 -271 53 -277 ct 61 -284 71 -288 82 -291 ct 92 -294 104 -296 116 -296 ct 
133 -296 147 -294 158 -290 ct 170 -286 179 -280 187 -273 ct 194 -266 200 -258 203 -249 ct 
207 -239 209 -229 209 -219 ct 209 -210 207 -202 205 -195 ct 203 -187 199 -180 194 -174 ct 
189 -169 183 -163 175 -159 ct 168 -155 158 -152 148 -149 ct 148 -149 l  159 -147 170 -145 178 -141 ct 
187 -137 194 -131 200 -125 ct 205 -119 210 -112 212 -105 ct 215 -97 217 -89 217 -80 ct 
p ef
456 -146 m  456 -118 453 -94 448 -75 ct 442 -56 435 -41 426 -29 ct 417 -17 406 -9 394 -4 ct 
381 1 368 4 354 4 ct 340 4 327 1 314 -4 ct 302 -9 292 -17 283 -29 ct 274 -41 266 -56 261 -75 ct 
256 -94 254 -118 254 -146 ct 254 -175 256 -200 261 -219 ct 266 -238 274 -254 283 -265 ct 
292 -276 302 -284 315 -289 ct 327 -294 341 -296 355 -296 ct 369 -296 382 -294 394 -289 ct 
407 -284 417 -276 426 -265 ct 435 -254 443 -238 448 -219 ct 453 -200 456 -175 456 -146 ct 
p
418 -146 m  418 -169 417 -188 414 -204 ct 411 -219 407 -231 402 -241 ct 396 -250 390 -256 382 -260 ct 
374 -264 365 -266 355 -266 ct 345 -266 336 -264 328 -260 ct 320 -256 313 -250 308 -240 ct 
302 -231 298 -219 295 -204 ct 292 -188 291 -169 291 -146 ct 291 -124 293 -105 295 -90 ct 
298 -74 302 -62 308 -53 ct 313 -43 320 -37 328 -33 ct 336 -28 344 -26 355 -26 ct 
364 -26 373 -28 381 -33 ct 389 -37 395 -43 401 -53 ct 406 -62 411 -74 413 -90 ct 
416 -105 418 -124 418 -146 ct p ef
pom
0.449 0.625 0.812 c 12235 10556 m  12415 10556 12553 10693 12553 10873 ct 
12553 11053 12415 11191 12235 11191 ct 12056 11191 11919 11053 11919 10873 ct 
11919 10693 12056 10556 12235 10556 ct p
11919 10556 m  11919 10556 l  p
12554 11192 m  12554 11192 l  p ef
0.207 0.398 0.644 c 12235 10556 m  12415 10556 12553 10693 12553 10873 ct 
12553 11053 12415 11191 12235 11191 ct 12055 11191 11918 11053 11918 10873 ct 
11918 10693 12055 10556 12235 10556 ct pc
11918 10556 m  11918 10556 l  pc
12554 11192 m  12554 11192 l  pc
pum
11999 11022 t
0.003 0.003 0.003 c 182 -66 m  182 0 l  147 0 l  147 -66 l  10 -66 l  10 -95 l 
143 -292 l  182 -292 l  182 -95 l  223 -95 l  223 -66 l  182 -66 l  p
147 -250 m  147 -249 146 -247 145 -245 ct 144 -243 142 -241 141 -239 ct 140 -236 138 -234 137 -231 ct 
135 -229 134 -226 133 -225 ct 58 -114 l  58 -113 57 -112 55 -110 ct 54 -108 53 -106 51 -104 ct 
50 -102 49 -101 47 -99 ct 46 -97 45 -96 44 -96 ct 147 -96 l  147 -250 l  p ef
456 -146 m  456 -118 453 -94 448 -75 ct 442 -56 435 -41 426 -29 ct 417 -17 406 -9 394 -4 ct 
381 1 368 4 354 4 ct 340 4 327 1 314 -4 ct 302 -9 292 -17 283 -29 ct 274 -41 266 -56 261 -75 ct 
256 -94 254 -118 254 -146 ct 254 -175 256 -200 261 -219 ct 266 -238 274 -254 283 -265 ct 
292 -276 302 -284 315 -289 ct 327 -294 341 -296 355 -296 ct 369 -296 382 -294 394 -289 ct 
407 -284 417 -276 426 -265 ct 435 -254 443 -238 448 -219 ct 453 -200 456 -175 456 -146 ct 
p
418 -146 m  418 -169 417 -188 414 -204 ct 411 -219 407 -231 402 -241 ct 396 -250 390 -256 382 -260 ct 
374 -264 365 -266 355 -266 ct 345 -266 336 -264 328 -260 ct 320 -256 313 -250 308 -240 ct 
302 -231 298 -219 295 -204 ct 292 -188 291 -169 291 -146 ct 291 -124 293 -105 295 -90 ct 
298 -74 302 -62 308 -53 ct 313 -43 320 -37 328 -33 ct 336 -28 344 -26 355 -26 ct 
364 -26 373 -28 381 -33 ct 389 -37 395 -43 401 -53 ct 406 -62 411 -74 413 -90 ct 
416 -105 418 -124 418 -146 ct p ef
pom
0.449 0.625 0.812 c 13535 10556 m  13715 10556 13853 10693 13853 10873 ct 
13853 11053 13715 11191 13535 11191 ct 13355 11191 13218 11053 13218 10873 ct 
13218 10693 13355 10556 13535 10556 ct p
13218 10556 m  13218 10556 l  p
13854 11192 m  13854 11192 l  p ef
0.207 0.398 0.644 c 13535 10556 m  13715 10556 13853 10693 13853 10873 ct 
13853 11053 13715 11191 13535 11191 ct 13355 11191 13218 11053 13218 10873 ct 
13218 10693 13355 10556 13535 10556 ct pc
13218 10556 m  13218 10556 l  pc
13854 11192 m  13854 11192 l  pc
pum
13298 11022 t
0.003 0.003 0.003 c 217 -95 m  217 -80 215 -67 211 -55 ct 206 -43 200 -32 191 -24 ct 
183 -15 172 -8 159 -3 ct 146 2 131 4 114 4 ct 99 4 86 2 74 -1 ct 63 -5 53 -10 45 -16 ct 
38 -22 31 -30 27 -38 ct 22 -47 19 -56 17 -65 ct 55 -70 l  56 -64 58 -59 61 -54 ct 
64 -48 67 -44 72 -40 ct 77 -36 83 -32 90 -30 ct 97 -28 105 -26 115 -26 ct 125 -26 133 -28 141 -31 ct 
149 -34 156 -38 161 -44 ct 167 -50 171 -57 174 -65 ct 177 -74 179 -83 179 -94 ct 
179 -103 177 -111 175 -119 ct 172 -126 168 -133 162 -138 ct 157 -144 150 -148 142 -151 ct 
135 -154 126 -156 116 -156 ct 110 -156 104 -155 99 -154 ct 93 -153 89 -151 84 -149 ct 
80 -147 76 -145 72 -143 ct 68 -140 65 -137 62 -135 ct 25 -135 l  35 -292 l  201 -292 l 
201 -260 l  69 -260 l  63 -167 l  70 -173 78 -177 88 -181 ct 98 -184 110 -186 124 -186 ct 
138 -186 151 -184 163 -179 ct 174 -175 184 -169 192 -161 ct 200 -153 206 -143 211 -132 ct 
215 -121 217 -108 217 -95 ct p ef
456 -146 m  456 -118 453 -94 448 -75 ct 442 -56 435 -41 426 -29 ct 417 -17 406 -9 394 -4 ct 
381 1 368 4 354 4 ct 340 4 327 1 314 -4 ct 302 -9 292 -17 283 -29 ct 274 -41 266 -56 261 -75 ct 
256 -94 254 -118 254 -146 ct 254 -175 256 -200 261 -219 ct 266 -238 274 -254 283 -265 ct 
292 -276 302 -284 315 -289 ct 327 -294 341 -296 355 -296 ct 369 -296 382 -294 394 -289 ct 
407 -284 417 -276 426 -265 ct 435 -254 443 -238 448 -219 ct 453 -200 456 -175 456 -146 ct 
p
418 -146 m  418 -169 417 -188 414 -204 ct 411 -219 407 -231 402 -241 ct 396 -250 390 -256 382 -260 ct 
374 -264 365 -266 355 -266 ct 345 -266 336 -264 328 -260 ct 320 -256 313 -250 308 -240 ct 
302 -231 298 -219 295 -204 ct 292 -188 291 -169 291 -146 ct 291 -124 293 -105 295 -90 ct 
298 -74 302 -62 308 -53 ct 313 -43 320 -37 328 -33 ct 336 -28 344 -26 355 -26 ct 
364 -26 373 -28 381 -33 ct 389 -37 395 -43 401 -53 ct 406 -62 411 -74 413 -90 ct 
416 -105 418 -124 418 -146 ct p ef
pom
0.449 0.625 0.812 c 7237 11756 m  7417 11756 7555 11893 7555 12073 ct 7555 12253 7417 12391 7237 12391 ct 
7057 12391 6920 12253 6920 12073 ct 6920 11893 7057 11756 7237 11756 ct p
6920 11756 m  6920 11756 l  p
7556 12392 m  7556 12392 l  p ef
0.207 0.398 0.644 c 7236 11755 m  7416 11755 7554 11892 7554 12072 ct 7554 12252 7416 12390 7236 12390 ct 
7056 12390 6920 12252 6920 12072 ct 6920 11892 7056 11755 7236 11755 ct pc
6920 11755 m  6920 11755 l  pc
7555 12391 m  7555 12391 l  pc
pum
7000 12222 t
0.003 0.003 0.003 c 219 -146 m  219 -118 216 -94 211 -75 ct 205 -56 198 -41 189 -29 ct 
180 -17 169 -9 157 -4 ct 144 1 131 4 117 4 ct 103 4 90 1 77 -4 ct 65 -9 55 -17 46 -29 ct 
37 -41 29 -56 24 -75 ct 19 -94 17 -118 17 -146 ct 17 -175 19 -200 24 -219 ct 29 -238 37 -254 46 -265 ct 
55 -276 65 -284 78 -289 ct 90 -294 104 -296 118 -296 ct 132 -296 145 -294 157 -289 ct 
170 -284 180 -276 189 -265 ct 198 -254 206 -238 211 -219 ct 216 -200 219 -175 219 -146 ct 
p
181 -146 m  181 -169 180 -188 177 -204 ct 174 -219 170 -231 165 -241 ct 159 -250 153 -256 145 -260 ct 
137 -264 128 -266 118 -266 ct 108 -266 99 -264 91 -260 ct 83 -256 76 -250 71 -240 ct 
65 -231 61 -219 58 -204 ct 55 -188 54 -169 54 -146 ct 54 -124 56 -105 58 -90 ct 
61 -74 65 -62 71 -53 ct 76 -43 83 -37 91 -33 ct 99 -28 107 -26 118 -26 ct 127 -26 136 -28 144 -33 ct 
152 -37 158 -43 164 -53 ct 169 -62 174 -74 176 -90 ct 179 -105 181 -124 181 -146 ct 
p ef
269 0 m  269 -32 l  343 -32 l  343 -256 l  278 -209 l  278 -244 l  346 -292 l 
381 -292 l  381 -32 l  452 -32 l  452 0 l  269 0 l  p ef
pom
0.449 0.625 0.812 c 8537 11756 m  8716 11756 8854 11893 8854 12073 ct 8854 12253 8716 12391 8537 12391 ct 
8357 12391 8220 12253 8220 12073 ct 8220 11893 8357 11756 8537 11756 ct p
8220 11756 m  8220 11756 l  p
8855 12392 m  8855 12392 l  p ef
0.207 0.398 0.644 c 8536 11755 m  8716 11755 8854 11892 8854 12072 ct 8854 12252 8716 12390 8536 12390 ct 
8356 12390 8219 12252 8219 12072 ct 8219 11892 8356 11755 8536 11755 ct pc
8219 11755 m  8219 11755 l  pc
8855 12391 m  8855 12391 l  pc
pum
8300 12222 t
0.003 0.003 0.003 c 32 0 m  32 -32 l  106 -32 l  106 -256 l  41 -209 l  41 -244 l 
109 -292 l  144 -292 l  144 -32 l  215 -32 l  215 0 l  32 0 l  p ef
269 0 m  269 -32 l  343 -32 l  343 -256 l  278 -209 l  278 -244 l  346 -292 l 
381 -292 l  381 -32 l  452 -32 l  452 0 l  269 0 l  p ef
pom
0.449 0.625 0.812 c 9736 11756 m  9916 11756 10054 11893 10054 12073 ct 10054 12253 9916 12391 9736 12391 ct 
9556 12391 9419 12253 9419 12073 ct 9419 11893 9556 11756 9736 11756 ct p
9419 11756 m  9419 11756 l  p
10055 12392 m  10055 12392 l  p ef
0.207 0.398 0.644 c 9736 11755 m  9916 11755 10054 11892 10054 12072 ct 10054 12252 9916 12390 9736 12390 ct 
9556 12390 9419 12252 9419 12072 ct 9419 11892 9556 11755 9736 11755 ct pc
9419 11755 m  9419 11755 l  pc
10055 12391 m  10055 12391 l  pc
pum
9499 12222 t
0.003 0.003 0.003 c 21 0 m  21 -26 l  28 -42 37 -57 47 -69 ct 57 -81 68 -93 79 -103 ct 
90 -113 101 -122 112 -130 ct 123 -139 133 -148 142 -156 ct 151 -165 158 -174 163 -183 ct 
169 -192 171 -203 171 -215 ct 171 -223 170 -230 168 -237 ct 165 -243 161 -248 157 -253 ct 
152 -257 146 -260 140 -262 ct 133 -264 126 -265 118 -265 ct 111 -265 104 -264 97 -262 ct 
91 -260 85 -257 80 -253 ct 75 -249 70 -244 67 -238 ct 64 -231 62 -224 61 -216 ct 
23 -220 l  24 -230 27 -240 32 -249 ct 36 -258 42 -267 50 -274 ct 58 -281 68 -286 79 -290 ct 
90 -294 103 -296 118 -296 ct 133 -296 145 -294 157 -291 ct 168 -287 178 -282 185 -276 ct 
193 -269 199 -260 203 -250 ct 207 -241 209 -229 209 -216 ct 209 -206 208 -197 204 -188 ct 
201 -179 196 -171 190 -163 ct 184 -155 177 -147 170 -140 ct 162 -132 154 -125 146 -118 ct 
137 -111 129 -104 120 -97 ct 112 -90 104 -83 96 -76 ct 89 -69 82 -62 76 -54 ct 
70 -47 65 -40 62 -32 ct 214 -32 l  214 0 l  21 0 l  p ef
269 0 m  269 -32 l  343 -32 l  343 -256 l  278 -209 l  278 -244 l  346 -292 l 
381 -292 l  381 -32 l  452 -32 l  452 0 l  269 0 l  p ef
pom
0.449 0.625 0.812 c 10936 11756 m  11116 11756 11254 11893 11254 12073 ct 
11254 12253 11116 12391 10936 12391 ct 10756 12391 10619 12253 10619 12073 ct 
10619 11893 10756 11756 10936 11756 ct p
10619 11756 m  10619 11756 l  p
11255 12392 m  11255 12392 l  p ef
0.207 0.398 0.644 c 10935 11755 m  11115 11755 11253 11892 11253 12072 ct 
11253 12252 11115 12390 10935 12390 ct 10755 12390 10618 12252 10618 12072 ct 
10618 11892 10755 11755 10935 11755 ct pc
10618 11755 m  10618 11755 l  pc
11254 12391 m  11254 12391 l  pc
pum
10699 12222 t
0.003 0.003 0.003 c 217 -80 m  217 -67 214 -55 210 -45 ct 206 -34 199 -25 191 -18 ct 
183 -11 173 -5 160 -2 ct 148 2 134 4 118 4 ct 100 4 85 2 72 -3 ct 60 -7 50 -13 42 -20 ct 
34 -28 28 -36 24 -46 ct 20 -55 17 -65 16 -75 ct 55 -78 l  56 -71 58 -64 61 -57 ct 
64 -51 68 -46 73 -41 ct 78 -37 84 -33 92 -31 ct 99 -28 108 -27 118 -27 ct 137 -27 151 -31 162 -41 ct 
173 -50 178 -64 178 -82 ct 178 -92 176 -101 171 -108 ct 166 -114 160 -119 153 -123 ct 
146 -126 138 -129 130 -130 ct 122 -131 114 -132 107 -132 ct 86 -132 l  86 -164 l 
106 -164 l  113 -164 120 -165 128 -166 ct 136 -168 143 -171 149 -174 ct 155 -178 160 -183 164 -190 ct 
168 -196 170 -205 170 -215 ct 170 -230 166 -243 157 -252 ct 148 -261 134 -265 116 -265 ct 
99 -265 86 -261 76 -253 ct 66 -244 60 -232 58 -217 ct 21 -220 l  23 -233 26 -244 32 -254 ct 
37 -263 44 -271 53 -277 ct 61 -284 71 -288 82 -291 ct 92 -294 104 -296 116 -296 ct 
133 -296 147 -294 158 -290 ct 170 -286 179 -280 187 -273 ct 194 -266 200 -258 203 -249 ct 
207 -239 209 -229 209 -219 ct 209 -210 207 -202 205 -195 ct 203 -187 199 -180 194 -174 ct 
189 -169 183 -163 175 -159 ct 168 -155 158 -152 148 -149 ct 148 -149 l  159 -147 170 -145 178 -141 ct 
187 -137 194 -131 200 -125 ct 205 -119 210 -112 212 -105 ct 215 -97 217 -89 217 -80 ct 
p ef
269 0 m  269 -32 l  343 -32 l  343 -256 l  278 -209 l  278 -244 l  346 -292 l 
381 -292 l  381 -32 l  452 -32 l  452 0 l  269 0 l  p ef
pom
0.449 0.625 0.812 c 12235 11756 m  12415 11756 12553 11893 12553 12073 ct 
12553 12253 12415 12391 12235 12391 ct 12056 12391 11919 12253 11919 12073 ct 
11919 11893 12056 11756 12235 11756 ct p
11919 11756 m  11919 11756 l  p
12554 12392 m  12554 12392 l  p ef
0.207 0.398 0.644 c 12235 11755 m  12415 11755 12553 11892 12553 12072 ct 
12553 12252 12415 12390 12235 12390 ct 12055 12390 11918 12252 11918 12072 ct 
11918 11892 12055 11755 12235 11755 ct pc
11918 11755 m  11918 11755 l  pc
12554 12391 m  12554 12391 l  pc
pum
11999 12222 t
0.003 0.003 0.003 c 182 -66 m  182 0 l  147 0 l  147 -66 l  10 -66 l  10 -95 l 
143 -292 l  182 -292 l  182 -95 l  223 -95 l  223 -66 l  182 -66 l  p
147 -250 m  147 -249 146 -247 145 -245 ct 144 -243 142 -241 141 -239 ct 140 -236 138 -234 137 -231 ct 
135 -229 134 -226 133 -225 ct 58 -114 l  58 -113 57 -112 55 -110 ct 54 -108 53 -106 51 -104 ct 
50 -102 49 -101 47 -99 ct 46 -97 45 -96 44 -96 ct 147 -96 l  147 -250 l  p ef
269 0 m  269 -32 l  343 -32 l  343 -256 l  278 -209 l  278 -244 l  346 -292 l 
381 -292 l  381 -32 l  452 -32 l  452 0 l  269 0 l  p ef
pom
0.449 0.625 0.812 c 13535 11756 m  13715 11756 13853 11893 13853 12073 ct 
13853 12253 13715 12391 13535 12391 ct 13355 12391 13218 12253 13218 12073 ct 
13218 11893 13355 11756 13535 11756 ct p
13218 11756 m  13218 11756 l  p
13854 12392 m  13854 12392 l  p ef
0.207 0.398 0.644 c 13535 11755 m  13715 11755 13853 11892 13853 12072 ct 
13853 12252 13715 12390 13535 12390 ct 13355 12390 13218 12252 13218 12072 ct 
13218 11892 13355 11755 13535 11755 ct pc
13218 11755 m  13218 11755 l  pc
13854 12391 m  13854 12391 l  pc
pum
13298 12222 t
0.003 0.003 0.003 c 217 -95 m  217 -80 215 -67 211 -55 ct 206 -43 200 -32 191 -24 ct 
183 -15 172 -8 159 -3 ct 146 2 131 4 114 4 ct 99 4 86 2 74 -1 ct 63 -5 53 -10 45 -16 ct 
38 -22 31 -30 27 -38 ct 22 -47 19 -56 17 -65 ct 55 -70 l  56 -64 58 -59 61 -54 ct 
64 -48 67 -44 72 -40 ct 77 -36 83 -32 90 -30 ct 97 -28 105 -26 115 -26 ct 125 -26 133 -28 141 -31 ct 
149 -34 156 -38 161 -44 ct 167 -50 171 -57 174 -65 ct 177 -74 179 -83 179 -94 ct 
179 -103 177 -111 175 -119 ct 172 -126 168 -133 162 -138 ct 157 -144 150 -148 142 -151 ct 
135 -154 126 -156 116 -156 ct 110 -156 104 -155 99 -154 ct 93 -153 89 -151 84 -149 ct 
80 -147 76 -145 72 -143 ct 68 -140 65 -137 62 -135 ct 25 -135 l  35 -292 l  201 -292 l 
201 -260 l  69 -260 l  63 -167 l  70 -173 78 -177 88 -181 ct 98 -184 110 -186 124 -186 ct 
138 -186 151 -184 163 -179 ct 174 -175 184 -169 192 -161 ct 200 -153 206 -143 211 -132 ct 
215 -121 217 -108 217 -95 ct p ef
269 0 m  269 -32 l  343 -32 l  343 -256 l  278 -209 l  278 -244 l  346 -292 l 
381 -292 l  381 -32 l  452 -32 l  452 0 l  269 0 l  p ef
pom
0.449 0.625 0.812 c 7237 13255 m  7417 13255 7555 13392 7555 13572 ct 7555 13752 7417 13890 7237 13890 ct 
7057 13890 6920 13752 6920 13572 ct 6920 13392 7057 13255 7237 13255 ct p
6920 13255 m  6920 13255 l  p
7556 13891 m  7556 13891 l  p ef
0.207 0.398 0.644 c 7236 13255 m  7416 13255 7554 13392 7554 13572 ct 7554 13752 7416 13890 7236 13890 ct 
7056 13890 6920 13752 6920 13572 ct 6920 13392 7056 13255 7236 13255 ct pc
6920 13255 m  6920 13255 l  pc
7555 13891 m  7555 13891 l  pc
pum
7000 13721 t
0.003 0.003 0.003 c 219 -146 m  219 -118 216 -94 211 -75 ct 205 -56 198 -41 189 -29 ct 
180 -17 169 -9 157 -4 ct 144 1 131 4 117 4 ct 103 4 90 1 77 -4 ct 65 -9 55 -17 46 -29 ct 
37 -41 29 -56 24 -75 ct 19 -94 17 -118 17 -146 ct 17 -175 19 -200 24 -219 ct 29 -238 37 -254 46 -265 ct 
55 -276 65 -284 78 -289 ct 90 -294 104 -296 118 -296 ct 132 -296 145 -294 157 -289 ct 
170 -284 180 -276 189 -265 ct 198 -254 206 -238 211 -219 ct 216 -200 219 -175 219 -146 ct 
p
181 -146 m  181 -169 180 -188 177 -204 ct 174 -219 170 -231 165 -241 ct 159 -250 153 -256 145 -260 ct 
137 -264 128 -266 118 -266 ct 108 -266 99 -264 91 -260 ct 83 -256 76 -250 71 -240 ct 
65 -231 61 -219 58 -204 ct 55 -188 54 -169 54 -146 ct 54 -124 56 -105 58 -90 ct 
61 -74 65 -62 71 -53 ct 76 -43 83 -37 91 -33 ct 99 -28 107 -26 118 -26 ct 127 -26 136 -28 144 -33 ct 
152 -37 158 -43 164 -53 ct 169 -62 174 -74 176 -90 ct 179 -105 181 -124 181 -146 ct 
p ef
258 0 m  258 -26 l  265 -42 274 -57 284 -69 ct 294 -81 305 -93 316 -103 ct 327 -113 338 -122 349 -130 ct 
360 -139 370 -148 379 -156 ct 388 -165 395 -174 400 -183 ct 406 -192 408 -203 408 -215 ct 
408 -223 407 -230 405 -237 ct 402 -243 398 -248 394 -253 ct 389 -257 383 -260 377 -262 ct 
370 -264 363 -265 355 -265 ct 348 -265 341 -264 334 -262 ct 328 -260 322 -257 317 -253 ct 
312 -249 307 -244 304 -238 ct 301 -231 299 -224 298 -216 ct 260 -220 l  261 -230 264 -240 269 -249 ct 
273 -258 279 -267 287 -274 ct 295 -281 305 -286 316 -290 ct 327 -294 340 -296 355 -296 ct 
370 -296 382 -294 394 -291 ct 405 -287 415 -282 422 -276 ct 430 -269 436 -260 440 -250 ct 
444 -241 446 -229 446 -216 ct 446 -206 445 -197 441 -188 ct 438 -179 433 -171 427 -163 ct 
421 -155 414 -147 407 -140 ct 399 -132 391 -125 383 -118 ct 374 -111 366 -104 357 -97 ct 
349 -90 341 -83 333 -76 ct 326 -69 319 -62 313 -54 ct 307 -47 302 -40 299 -32 ct 
451 -32 l  451 0 l  258 0 l  p ef
pom
0.449 0.625 0.812 c 8537 13255 m  8716 13255 8854 13392 8854 13572 ct 8854 13752 8716 13890 8537 13890 ct 
8357 13890 8220 13752 8220 13572 ct 8220 13392 8357 13255 8537 13255 ct p
8220 13255 m  8220 13255 l  p
8855 13891 m  8855 13891 l  p ef
0.207 0.398 0.644 c 8536 13255 m  8716 13255 8854 13392 8854 13572 ct 8854 13752 8716 13890 8536 13890 ct 
8356 13890 8219 13752 8219 13572 ct 8219 13392 8356 13255 8536 13255 ct pc
8219 13255 m  8219 13255 l  pc
8855 13891 m  8855 13891 l  pc
pum
8300 13721 t
0.003 0.003 0.003 c 32 0 m  32 -32 l  106 -32 l  106 -256 l  41 -209 l  41 -244 l 
109 -292 l  144 -292 l  144 -32 l  215 -32 l  215 0 l  32 0 l  p ef
258 0 m  258 -26 l  265 -42 274 -57 284 -69 ct 294 -81 305 -93 316 -103 ct 327 -113 338 -122 349 -130 ct 
360 -139 370 -148 379 -156 ct 388 -165 395 -174 400 -183 ct 406 -192 408 -203 408 -215 ct 
408 -223 407 -230 405 -237 ct 402 -243 398 -248 394 -253 ct 389 -257 383 -260 377 -262 ct 
370 -264 363 -265 355 -265 ct 348 -265 341 -264 334 -262 ct 328 -260 322 -257 317 -253 ct 
312 -249 307 -244 304 -238 ct 301 -231 299 -224 298 -216 ct 260 -220 l  261 -230 264 -240 269 -249 ct 
273 -258 279 -267 287 -274 ct 295 -281 305 -286 316 -290 ct 327 -294 340 -296 355 -296 ct 
370 -296 382 -294 394 -291 ct 405 -287 415 -282 422 -276 ct 430 -269 436 -260 440 -250 ct 
444 -241 446 -229 446 -216 ct 446 -206 445 -197 441 -188 ct 438 -179 433 -171 427 -163 ct 
421 -155 414 -147 407 -140 ct 399 -132 391 -125 383 -118 ct 374 -111 366 -104 357 -97 ct 
349 -90 341 -83 333 -76 ct 326 -69 319 -62 313 -54 ct 307 -47 302 -40 299 -32 ct 
451 -32 l  451 0 l  258 0 l  p ef
pom
0.449 0.625 0.812 c 9736 13255 m  9916 13255 10054 13392 10054 13572 ct 10054 13752 9916 13890 9736 13890 ct 
9556 13890 9419 13752 9419 13572 ct 9419 13392 9556 13255 9736 13255 ct p
9419 13255 m  9419 13255 l  p
10055 13891 m  10055 13891 l  p ef
0.207 0.398 0.644 c 9736 13255 m  9916 13255 10054 13392 10054 13572 ct 10054 13752 9916 13890 9736 13890 ct 
9556 13890 9419 13752 9419 13572 ct 9419 13392 9556 13255 9736 13255 ct pc
9419 13255 m  9419 13255 l  pc
10055 13891 m  10055 13891 l  pc
pum
9499 13721 t
0.003 0.003 0.003 c 21 0 m  21 -26 l  28 -42 37 -57 47 -69 ct 57 -81 68 -93 79 -103 ct 
90 -113 101 -122 112 -130 ct 123 -139 133 -148 142 -156 ct 151 -165 158 -174 163 -183 ct 
169 -192 171 -203 171 -215 ct 171 -223 170 -230 168 -237 ct 165 -243 161 -248 157 -253 ct 
152 -257 146 -260 140 -262 ct 133 -264 126 -265 118 -265 ct 111 -265 104 -264 97 -262 ct 
91 -260 85 -257 80 -253 ct 75 -249 70 -244 67 -238 ct 64 -231 62 -224 61 -216 ct 
23 -220 l  24 -230 27 -240 32 -249 ct 36 -258 42 -267 50 -274 ct 58 -281 68 -286 79 -290 ct 
90 -294 103 -296 118 -296 ct 133 -296 145 -294 157 -291 ct 168 -287 178 -282 185 -276 ct 
193 -269 199 -260 203 -250 ct 207 -241 209 -229 209 -216 ct 209 -206 208 -197 204 -188 ct 
201 -179 196 -171 190 -163 ct 184 -155 177 -147 170 -140 ct 162 -132 154 -125 146 -118 ct 
137 -111 129 -104 120 -97 ct 112 -90 104 -83 96 -76 ct 89 -69 82 -62 76 -54 ct 
70 -47 65 -40 62 -32 ct 214 -32 l  214 0 l  21 0 l  p ef
258 0 m  258 -26 l  265 -42 274 -57 284 -69 ct 294 -81 305 -93 316 -103 ct 327 -113 338 -122 349 -130 ct 
360 -139 370 -148 379 -156 ct 388 -165 395 -174 400 -183 ct 406 -192 408 -203 408 -215 ct 
408 -223 407 -230 405 -237 ct 402 -243 398 -248 394 -253 ct 389 -257 383 -260 377 -262 ct 
370 -264 363 -265 355 -265 ct 348 -265 341 -264 334 -262 ct 328 -260 322 -257 317 -253 ct 
312 -249 307 -244 304 -238 ct 301 -231 299 -224 298 -216 ct 260 -220 l  261 -230 264 -240 269 -249 ct 
273 -258 279 -267 287 -274 ct 295 -281 305 -286 316 -290 ct 327 -294 340 -296 355 -296 ct 
370 -296 382 -294 394 -291 ct 405 -287 415 -282 422 -276 ct 430 -269 436 -260 440 -250 ct 
444 -241 446 -229 446 -216 ct 446 -206 445 -197 441 -188 ct 438 -179 433 -171 427 -163 ct 
421 -155 414 -147 407 -140 ct 399 -132 391 -125 383 -118 ct 374 -111 366 -104 357 -97 ct 
349 -90 341 -83 333 -76 ct 326 -69 319 -62 313 -54 ct 307 -47 302 -40 299 -32 ct 
451 -32 l  451 0 l  258 0 l  p ef
pom
0.449 0.625 0.812 c 10936 13255 m  11116 13255 11254 13392 11254 13572 ct 
11254 13752 11116 13890 10936 13890 ct 10756 13890 10619 13752 10619 13572 ct 
10619 13392 10756 13255 10936 13255 ct p
10619 13255 m  10619 13255 l  p
11255 13891 m  11255 13891 l  p ef
0.207 0.398 0.644 c 10935 13255 m  11115 13255 11253 13392 11253 13572 ct 
11253 13752 11115 13890 10935 13890 ct 10755 13890 10618 13752 10618 13572 ct 
10618 13392 10755 13255 10935 13255 ct pc
10618 13255 m  10618 13255 l  pc
11254 13891 m  11254 13891 l  pc
pum
10699 13721 t
0.003 0.003 0.003 c 217 -80 m  217 -67 214 -55 210 -45 ct 206 -34 199 -25 191 -18 ct 
183 -11 173 -5 160 -2 ct 148 2 134 4 118 4 ct 100 4 85 2 72 -3 ct 60 -7 50 -13 42 -20 ct 
34 -28 28 -36 24 -46 ct 20 -55 17 -65 16 -75 ct 55 -78 l  56 -71 58 -64 61 -57 ct 
64 -51 68 -46 73 -41 ct 78 -37 84 -33 92 -31 ct 99 -28 108 -27 118 -27 ct 137 -27 151 -31 162 -41 ct 
173 -50 178 -64 178 -82 ct 178 -92 176 -101 171 -108 ct 166 -114 160 -119 153 -123 ct 
146 -126 138 -129 130 -130 ct 122 -131 114 -132 107 -132 ct 86 -132 l  86 -164 l 
106 -164 l  113 -164 120 -165 128 -166 ct 136 -168 143 -171 149 -174 ct 155 -178 160 -183 164 -190 ct 
168 -196 170 -205 170 -215 ct 170 -230 166 -243 157 -252 ct 148 -261 134 -265 116 -265 ct 
99 -265 86 -261 76 -253 ct 66 -244 60 -232 58 -217 ct 21 -220 l  23 -233 26 -244 32 -254 ct 
37 -263 44 -271 53 -277 ct 61 -284 71 -288 82 -291 ct 92 -294 104 -296 116 -296 ct 
133 -296 147 -294 158 -290 ct 170 -286 179 -280 187 -273 ct 194 -266 200 -258 203 -249 ct 
207 -239 209 -229 209 -219 ct 209 -210 207 -202 205 -195 ct 203 -187 199 -180 194 -174 ct 
189 -169 183 -163 175 -159 ct 168 -155 158 -152 148 -149 ct 148 -149 l  159 -147 170 -145 178 -141 ct 
187 -137 194 -131 200 -125 ct 205 -119 210 -112 212 -105 ct 215 -97 217 -89 217 -80 ct 
p ef
258 0 m  258 -26 l  265 -42 274 -57 284 -69 ct 294 -81 305 -93 316 -103 ct 327 -113 338 -122 349 -130 ct 
360 -139 370 -148 379 -156 ct 388 -165 395 -174 400 -183 ct 406 -192 408 -203 408 -215 ct 
408 -223 407 -230 405 -237 ct 402 -243 398 -248 394 -253 ct 389 -257 383 -260 377 -262 ct 
370 -264 363 -265 355 -265 ct 348 -265 341 -264 334 -262 ct 328 -260 322 -257 317 -253 ct 
312 -249 307 -244 304 -238 ct 301 -231 299 -224 298 -216 ct 260 -220 l  261 -230 264 -240 269 -249 ct 
273 -258 279 -267 287 -274 ct 295 -281 305 -286 316 -290 ct 327 -294 340 -296 355 -296 ct 
370 -296 382 -294 394 -291 ct 405 -287 415 -282 422 -276 ct 430 -269 436 -260 440 -250 ct 
444 -241 446 -229 446 -216 ct 446 -206 445 -197 441 -188 ct 438 -179 433 -171 427 -163 ct 
421 -155 414 -147 407 -140 ct 399 -132 391 -125 383 -118 ct 374 -111 366 -104 357 -97 ct 
349 -90 341 -83 333 -76 ct 326 -69 319 -62 313 -54 ct 307 -47 302 -40 299 -32 ct 
451 -32 l  451 0 l  258 0 l  p ef
pom
0.449 0.625 0.812 c 12235 13255 m  12415 13255 12553 13392 12553 13572 ct 
12553 13752 12415 13890 12235 13890 ct 12056 13890 11919 13752 11919 13572 ct 
11919 13392 12056 13255 12235 13255 ct p
11919 13255 m  11919 13255 l  p
12554 13891 m  12554 13891 l  p ef
0.207 0.398 0.644 c 12235 13255 m  12415 13255 12553 13392 12553 13572 ct 
12553 13752 12415 13890 12235 13890 ct 12055 13890 11918 13752 11918 13572 ct 
11918 13392 12055 13255 12235 13255 ct pc
11918 13255 m  11918 13255 l  pc
12554 13891 m  12554 13891 l  pc
pum
11999 13721 t
0.003 0.003 0.003 c 182 -66 m  182 0 l  147 0 l  147 -66 l  10 -66 l  10 -95 l 
143 -292 l  182 -292 l  182 -95 l  223 -95 l  223 -66 l  182 -66 l  p
147 -250 m  147 -249 146 -247 145 -245 ct 144 -243 142 -241 141 -239 ct 140 -236 138 -234 137 -231 ct 
135 -229 134 -226 133 -225 ct 58 -114 l  58 -113 57 -112 55 -110 ct 54 -108 53 -106 51 -104 ct 
50 -102 49 -101 47 -99 ct 46 -97 45 -96 44 -96 ct 147 -96 l  147 -250 l  p ef
258 0 m  258 -26 l  265 -42 274 -57 284 -69 ct 294 -81 305 -93 316 -103 ct 327 -113 338 -122 349 -130 ct 
360 -139 370 -148 379 -156 ct 388 -165 395 -174 400 -183 ct 406 -192 408 -203 408 -215 ct 
408 -223 407 -230 405 -237 ct 402 -243 398 -248 394 -253 ct 389 -257 383 -260 377 -262 ct 
370 -264 363 -265 355 -265 ct 348 -265 341 -264 334 -262 ct 328 -260 322 -257 317 -253 ct 
312 -249 307 -244 304 -238 ct 301 -231 299 -224 298 -216 ct 260 -220 l  261 -230 264 -240 269 -249 ct 
273 -258 279 -267 287 -274 ct 295 -281 305 -286 316 -290 ct 327 -294 340 -296 355 -296 ct 
370 -296 382 -294 394 -291 ct 405 -287 415 -282 422 -276 ct 430 -269 436 -260 440 -250 ct 
444 -241 446 -229 446 -216 ct 446 -206 445 -197 441 -188 ct 438 -179 433 -171 427 -163 ct 
421 -155 414 -147 407 -140 ct 399 -132 391 -125 383 -118 ct 374 -111 366 -104 357 -97 ct 
349 -90 341 -83 333 -76 ct 326 -69 319 -62 313 -54 ct 307 -47 302 -40 299 -32 ct 
451 -32 l  451 0 l  258 0 l  p ef
pom
0.449 0.625 0.812 c 13535 13255 m  13715 13255 13853 13392 13853 13572 ct 
13853 13752 13715 13890 13535 13890 ct 13355 13890 13218 13752 13218 13572 ct 
13218 13392 13355 13255 13535 13255 ct p
13218 13255 m  13218 13255 l  p
13854 13891 m  13854 13891 l  p ef
0.207 0.398 0.644 c 13535 13255 m  13715 13255 13853 13392 13853 13572 ct 
13853 13752 13715 13890 13535 13890 ct 13355 13890 13218 13752 13218 13572 ct 
13218 13392 13355 13255 13535 13255 ct pc
13218 13255 m  13218 13255 l  pc
13854 13891 m  13854 13891 l  pc
pum
13298 13721 t
0.003 0.003 0.003 c 217 -95 m  217 -80 215 -67 211 -55 ct 206 -43 200 -32 191 -24 ct 
183 -15 172 -8 159 -3 ct 146 2 131 4 114 4 ct 99 4 86 2 74 -1 ct 63 -5 53 -10 45 -16 ct 
38 -22 31 -30 27 -38 ct 22 -47 19 -56 17 -65 ct 55 -70 l  56 -64 58 -59 61 -54 ct 
64 -48 67 -44 72 -40 ct 77 -36 83 -32 90 -30 ct 97 -28 105 -26 115 -26 ct 125 -26 133 -28 141 -31 ct 
149 -34 156 -38 161 -44 ct 167 -50 171 -57 174 -65 ct 177 -74 179 -83 179 -94 ct 
179 -103 177 -111 175 -119 ct 172 -126 168 -133 162 -138 ct 157 -144 150 -148 142 -151 ct 
135 -154 126 -156 116 -156 ct 110 -156 104 -155 99 -154 ct 93 -153 89 -151 84 -149 ct 
80 -147 76 -145 72 -143 ct 68 -140 65 -137 62 -135 ct 25 -135 l  35 -292 l  201 -292 l 
201 -260 l  69 -260 l  63 -167 l  70 -173 78 -177 88 -181 ct 98 -184 110 -186 124 -186 ct 
138 -186 151 -184 163 -179 ct 174 -175 184 -169 192 -161 ct 200 -153 206 -143 211 -132 ct 
215 -121 217 -108 217 -95 ct p ef
258 0 m  258 -26 l  265 -42 274 -57 284 -69 ct 294 -81 305 -93 316 -103 ct 327 -113 338 -122 349 -130 ct 
360 -139 370 -148 379 -156 ct 388 -165 395 -174 400 -183 ct 406 -192 408 -203 408 -215 ct 
408 -223 407 -230 405 -237 ct 402 -243 398 -248 394 -253 ct 389 -257 383 -260 377 -262 ct 
370 -264 363 -265 355 -265 ct 348 -265 341 -264 334 -262 ct 328 -260 322 -257 317 -253 ct 
312 -249 307 -244 304 -238 ct 301 -231 299 -224 298 -216 ct 260 -220 l  261 -230 264 -240 269 -249 ct 
273 -258 279 -267 287 -274 ct 295 -281 305 -286 316 -290 ct 327 -294 340 -296 355 -296 ct 
370 -296 382 -294 394 -291 ct 405 -287 415 -282 422 -276 ct 430 -269 436 -260 440 -250 ct 
444 -241 446 -229 446 -216 ct 446 -206 445 -197 441 -188 ct 438 -179 433 -171 427 -163 ct 
421 -155 414 -147 407 -140 ct 399 -132 391 -125 383 -118 ct 374 -111 366 -104 357 -97 ct 
349 -90 341 -83 333 -76 ct 326 -69 319 -62 313 -54 ct 307 -47 302 -40 299 -32 ct 
451 -32 l  451 0 l  258 0 l  p ef
pom
0.449 0.625 0.812 c 7237 14555 m  7417 14555 7555 14692 7555 14872 ct 7555 15052 7417 15190 7237 15190 ct 
7057 15190 6920 15052 6920 14872 ct 6920 14692 7057 14555 7237 14555 ct p
6920 14555 m  6920 14555 l  p
7556 15191 m  7556 15191 l  p ef
0.207 0.398 0.644 c 7236 14555 m  7416 14555 7554 14692 7554 14872 ct 7554 15052 7416 15189 7236 15189 ct 
7056 15189 6920 15052 6920 14872 ct 6920 14692 7056 14555 7236 14555 ct pc
6920 14555 m  6920 14555 l  pc
7555 15190 m  7555 15190 l  pc
pum
7000 15021 t
0.003 0.003 0.003 c 219 -146 m  219 -118 216 -94 211 -75 ct 205 -56 198 -41 189 -29 ct 
180 -17 169 -9 157 -4 ct 144 1 131 4 117 4 ct 103 4 90 1 77 -4 ct 65 -9 55 -17 46 -29 ct 
37 -41 29 -56 24 -75 ct 19 -94 17 -118 17 -146 ct 17 -175 19 -200 24 -219 ct 29 -238 37 -254 46 -265 ct 
55 -276 65 -284 78 -289 ct 90 -294 104 -296 118 -296 ct 132 -296 145 -294 157 -289 ct 
170 -284 180 -276 189 -265 ct 198 -254 206 -238 211 -219 ct 216 -200 219 -175 219 -146 ct 
p
181 -146 m  181 -169 180 -188 177 -204 ct 174 -219 170 -231 165 -241 ct 159 -250 153 -256 145 -260 ct 
137 -264 128 -266 118 -266 ct 108 -266 99 -264 91 -260 ct 83 -256 76 -250 71 -240 ct 
65 -231 61 -219 58 -204 ct 55 -188 54 -169 54 -146 ct 54 -124 56 -105 58 -90 ct 
61 -74 65 -62 71 -53 ct 76 -43 83 -37 91 -33 ct 99 -28 107 -26 118 -26 ct 127 -26 136 -28 144 -33 ct 
152 -37 158 -43 164 -53 ct 169 -62 174 -74 176 -90 ct 179 -105 181 -124 181 -146 ct 
p ef
454 -80 m  454 -67 451 -55 447 -45 ct 443 -34 436 -25 428 -18 ct 420 -11 410 -5 397 -2 ct 
385 2 371 4 355 4 ct 337 4 322 2 309 -3 ct 297 -7 287 -13 279 -20 ct 271 -28 265 -36 261 -46 ct 
257 -55 254 -65 253 -75 ct 292 -78 l  293 -71 295 -64 298 -57 ct 301 -51 305 -46 310 -41 ct 
315 -37 321 -33 329 -31 ct 336 -28 345 -27 355 -27 ct 374 -27 388 -31 399 -41 ct 
410 -50 415 -64 415 -82 ct 415 -92 413 -101 408 -108 ct 403 -114 397 -119 390 -123 ct 
383 -126 375 -129 367 -130 ct 359 -131 351 -132 344 -132 ct 323 -132 l  323 -164 l 
343 -164 l  350 -164 357 -165 365 -166 ct 373 -168 380 -171 386 -174 ct 392 -178 397 -183 401 -190 ct 
405 -196 407 -205 407 -215 ct 407 -230 403 -243 394 -252 ct 385 -261 371 -265 353 -265 ct 
336 -265 323 -261 313 -253 ct 303 -244 297 -232 295 -217 ct 258 -220 l  260 -233 263 -244 269 -254 ct 
274 -263 281 -271 290 -277 ct 298 -284 308 -288 319 -291 ct 329 -294 341 -296 353 -296 ct 
370 -296 384 -294 395 -290 ct 407 -286 416 -280 424 -273 ct 431 -266 437 -258 440 -249 ct 
444 -239 446 -229 446 -219 ct 446 -210 444 -202 442 -195 ct 440 -187 436 -180 431 -174 ct 
426 -169 420 -163 412 -159 ct 405 -155 395 -152 385 -149 ct 385 -149 l  396 -147 407 -145 415 -141 ct 
424 -137 431 -131 437 -125 ct 442 -119 447 -112 449 -105 ct 452 -97 454 -89 454 -80 ct 
p ef
pom
0.449 0.625 0.812 c 8537 14555 m  8716 14555 8854 14692 8854 14872 ct 8854 15052 8716 15190 8537 15190 ct 
8357 15190 8220 15052 8220 14872 ct 8220 14692 8357 14555 8537 14555 ct p
8220 14555 m  8220 14555 l  p
8855 15191 m  8855 15191 l  p ef
0.207 0.398 0.644 c 8536 14555 m  8716 14555 8854 14692 8854 14872 ct 8854 15052 8716 15189 8536 15189 ct 
8356 15189 8219 15052 8219 14872 ct 8219 14692 8356 14555 8536 14555 ct pc
8219 14555 m  8219 14555 l  pc
8855 15190 m  8855 15190 l  pc
pum
8300 15021 t
0.003 0.003 0.003 c 32 0 m  32 -32 l  106 -32 l  106 -256 l  41 -209 l  41 -244 l 
109 -292 l  144 -292 l  144 -32 l  215 -32 l  215 0 l  32 0 l  p ef
454 -80 m  454 -67 451 -55 447 -45 ct 443 -34 436 -25 428 -18 ct 420 -11 410 -5 397 -2 ct 
385 2 371 4 355 4 ct 337 4 322 2 309 -3 ct 297 -7 287 -13 279 -20 ct 271 -28 265 -36 261 -46 ct 
257 -55 254 -65 253 -75 ct 292 -78 l  293 -71 295 -64 298 -57 ct 301 -51 305 -46 310 -41 ct 
315 -37 321 -33 329 -31 ct 336 -28 345 -27 355 -27 ct 374 -27 388 -31 399 -41 ct 
410 -50 415 -64 415 -82 ct 415 -92 413 -101 408 -108 ct 403 -114 397 -119 390 -123 ct 
383 -126 375 -129 367 -130 ct 359 -131 351 -132 344 -132 ct 323 -132 l  323 -164 l 
343 -164 l  350 -164 357 -165 365 -166 ct 373 -168 380 -171 386 -174 ct 392 -178 397 -183 401 -190 ct 
405 -196 407 -205 407 -215 ct 407 -230 403 -243 394 -252 ct 385 -261 371 -265 353 -265 ct 
336 -265 323 -261 313 -253 ct 303 -244 297 -232 295 -217 ct 258 -220 l  260 -233 263 -244 269 -254 ct 
274 -263 281 -271 290 -277 ct 298 -284 308 -288 319 -291 ct 329 -294 341 -296 353 -296 ct 
370 -296 384 -294 395 -290 ct 407 -286 416 -280 424 -273 ct 431 -266 437 -258 440 -249 ct 
444 -239 446 -229 446 -219 ct 446 -210 444 -202 442 -195 ct 440 -187 436 -180 431 -174 ct 
426 -169 420 -163 412 -159 ct 405 -155 395 -152 385 -149 ct 385 -149 l  396 -147 407 -145 415 -141 ct 
424 -137 431 -131 437 -125 ct 442 -119 447 -112 449 -105 ct 452 -97 454 -89 454 -80 ct 
p ef
pom
0.449 0.625 0.812 c 9736 14555 m  9916 14555 10054 14692 10054 14872 ct 10054 15052 9916 15190 9736 15190 ct 
9556 15190 9419 15052 9419 14872 ct 9419 14692 9556 14555 9736 14555 ct p
9419 14555 m  9419 14555 l  p
10055 15191 m  10055 15191 l  p ef
0.207 0.398 0.644 c 9736 14555 m  9916 14555 10054 14692 10054 14872 ct 10054 15052 9916 15189 9736 15189 ct 
9556 15189 9419 15052 9419 14872 ct 9419 14692 9556 14555 9736 14555 ct pc
9419 14555 m  9419 14555 l  pc
10055 15190 m  10055 15190 l  pc
pum
9499 15021 t
0.003 0.003 0.003 c 21 0 m  21 -26 l  28 -42 37 -57 47 -69 ct 57 -81 68 -93 79 -103 ct 
90 -113 101 -122 112 -130 ct 123 -139 133 -148 142 -156 ct 151 -165 158 -174 163 -183 ct 
169 -192 171 -203 171 -215 ct 171 -223 170 -230 168 -237 ct 165 -243 161 -248 157 -253 ct 
152 -257 146 -260 140 -262 ct 133 -264 126 -265 118 -265 ct 111 -265 104 -264 97 -262 ct 
91 -260 85 -257 80 -253 ct 75 -249 70 -244 67 -238 ct 64 -231 62 -224 61 -216 ct 
23 -220 l  24 -230 27 -240 32 -249 ct 36 -258 42 -267 50 -274 ct 58 -281 68 -286 79 -290 ct 
90 -294 103 -296 118 -296 ct 133 -296 145 -294 157 -291 ct 168 -287 178 -282 185 -276 ct 
193 -269 199 -260 203 -250 ct 207 -241 209 -229 209 -216 ct 209 -206 208 -197 204 -188 ct 
201 -179 196 -171 190 -163 ct 184 -155 177 -147 170 -140 ct 162 -132 154 -125 146 -118 ct 
137 -111 129 -104 120 -97 ct 112 -90 104 -83 96 -76 ct 89 -69 82 -62 76 -54 ct 
70 -47 65 -40 62 -32 ct 214 -32 l  214 0 l  21 0 l  p ef
454 -80 m  454 -67 451 -55 447 -45 ct 443 -34 436 -25 428 -18 ct 420 -11 410 -5 397 -2 ct 
385 2 371 4 355 4 ct 337 4 322 2 309 -3 ct 297 -7 287 -13 279 -20 ct 271 -28 265 -36 261 -46 ct 
257 -55 254 -65 253 -75 ct 292 -78 l  293 -71 295 -64 298 -57 ct 301 -51 305 -46 310 -41 ct 
315 -37 321 -33 329 -31 ct 336 -28 345 -27 355 -27 ct 374 -27 388 -31 399 -41 ct 
410 -50 415 -64 415 -82 ct 415 -92 413 -101 408 -108 ct 403 -114 397 -119 390 -123 ct 
383 -126 375 -129 367 -130 ct 359 -131 351 -132 344 -132 ct 323 -132 l  323 -164 l 
343 -164 l  350 -164 357 -165 365 -166 ct 373 -168 380 -171 386 -174 ct 392 -178 397 -183 401 -190 ct 
405 -196 407 -205 407 -215 ct 407 -230 403 -243 394 -252 ct 385 -261 371 -265 353 -265 ct 
336 -265 323 -261 313 -253 ct 303 -244 297 -232 295 -217 ct 258 -220 l  260 -233 263 -244 269 -254 ct 
274 -263 281 -271 290 -277 ct 298 -284 308 -288 319 -291 ct 329 -294 341 -296 353 -296 ct 
370 -296 384 -294 395 -290 ct 407 -286 416 -280 424 -273 ct 431 -266 437 -258 440 -249 ct 
444 -239 446 -229 446 -219 ct 446 -210 444 -202 442 -195 ct 440 -187 436 -180 431 -174 ct 
426 -169 420 -163 412 -159 ct 405 -155 395 -152 385 -149 ct 385 -149 l  396 -147 407 -145 415 -141 ct 
424 -137 431 -131 437 -125 ct 442 -119 447 -112 449 -105 ct 452 -97 454 -89 454 -80 ct 
p ef
pom
0.449 0.625 0.812 c 10936 14555 m  11116 14555 11254 14692 11254 14872 ct 
11254 15052 11116 15190 10936 15190 ct 10756 15190 10619 15052 10619 14872 ct 
10619 14692 10756 14555 10936 14555 ct p
10619 14555 m  10619 14555 l  p
11255 15191 m  11255 15191 l  p ef
0.207 0.398 0.644 c 10935 14555 m  11115 14555 11253 14692 11253 14872 ct 
11253 15052 11115 15189 10935 15189 ct 10755 15189 10618 15052 10618 14872 ct 
10618 14692 10755 14555 10935 14555 ct pc
10618 14555 m  10618 14555 l  pc
11254 15190 m  11254 15190 l  pc
pum
10699 15021 t
0.003 0.003 0.003 c 217 -80 m  217 -67 214 -55 210 -45 ct 206 -34 199 -25 191 -18 ct 
183 -11 173 -5 160 -2 ct 148 2 134 4 118 4 ct 100 4 85 2 72 -3 ct 60 -7 50 -13 42 -20 ct 
34 -28 28 -36 24 -46 ct 20 -55 17 -65 16 -75 ct 55 -78 l  56 -71 58 -64 61 -57 ct 
64 -51 68 -46 73 -41 ct 78 -37 84 -33 92 -31 ct 99 -28 108 -27 118 -27 ct 137 -27 151 -31 162 -41 ct 
173 -50 178 -64 178 -82 ct 178 -92 176 -101 171 -108 ct 166 -114 160 -119 153 -123 ct 
146 -126 138 -129 130 -130 ct 122 -131 114 -132 107 -132 ct 86 -132 l  86 -164 l 
106 -164 l  113 -164 120 -165 128 -166 ct 136 -168 143 -171 149 -174 ct 155 -178 160 -183 164 -190 ct 
168 -196 170 -205 170 -215 ct 170 -230 166 -243 157 -252 ct 148 -261 134 -265 116 -265 ct 
99 -265 86 -261 76 -253 ct 66 -244 60 -232 58 -217 ct 21 -220 l  23 -233 26 -244 32 -254 ct 
37 -263 44 -271 53 -277 ct 61 -284 71 -288 82 -291 ct 92 -294 104 -296 116 -296 ct 
133 -296 147 -294 158 -290 ct 170 -286 179 -280 187 -273 ct 194 -266 200 -258 203 -249 ct 
207 -239 209 -229 209 -219 ct 209 -210 207 -202 205 -195 ct 203 -187 199 -180 194 -174 ct 
189 -169 183 -163 175 -159 ct 168 -155 158 -152 148 -149 ct 148 -149 l  159 -147 170 -145 178 -141 ct 
187 -137 194 -131 200 -125 ct 205 -119 210 -112 212 -105 ct 215 -97 217 -89 217 -80 ct 
p ef
454 -80 m  454 -67 451 -55 447 -45 ct 443 -34 436 -25 428 -18 ct 420 -11 410 -5 397 -2 ct 
385 2 371 4 355 4 ct 337 4 322 2 309 -3 ct 297 -7 287 -13 279 -20 ct 271 -28 265 -36 261 -46 ct 
257 -55 254 -65 253 -75 ct 292 -78 l  293 -71 295 -64 298 -57 ct 301 -51 305 -46 310 -41 ct 
315 -37 321 -33 329 -31 ct 336 -28 345 -27 355 -27 ct 374 -27 388 -31 399 -41 ct 
410 -50 415 -64 415 -82 ct 415 -92 413 -101 408 -108 ct 403 -114 397 -119 390 -123 ct 
383 -126 375 -129 367 -130 ct 359 -131 351 -132 344 -132 ct 323 -132 l  323 -164 l 
343 -164 l  350 -164 357 -165 365 -166 ct 373 -168 380 -171 386 -174 ct 392 -178 397 -183 401 -190 ct 
405 -196 407 -205 407 -215 ct 407 -230 403 -243 394 -252 ct 385 -261 371 -265 353 -265 ct 
336 -265 323 -261 313 -253 ct 303 -244 297 -232 295 -217 ct 258 -220 l  260 -233 263 -244 269 -254 ct 
274 -263 281 -271 290 -277 ct 298 -284 308 -288 319 -291 ct 329 -294 341 -296 353 -296 ct 
370 -296 384 -294 395 -290 ct 407 -286 416 -280 424 -273 ct 431 -266 437 -258 440 -249 ct 
444 -239 446 -229 446 -219 ct 446 -210 444 -202 442 -195 ct 440 -187 436 -180 431 -174 ct 
426 -169 420 -163 412 -159 ct 405 -155 395 -152 385 -149 ct 385 -149 l  396 -147 407 -145 415 -141 ct 
424 -137 431 -131 437 -125 ct 442 -119 447 -112 449 -105 ct 452 -97 454 -89 454 -80 ct 
p ef
pom
0.449 0.625 0.812 c 12235 14555 m  12415 14555 12553 14692 12553 14872 ct 
12553 15052 12415 15190 12235 15190 ct 12056 15190 11919 15052 11919 14872 ct 
11919 14692 12056 14555 12235 14555 ct p
11919 14555 m  11919 14555 l  p
12554 15191 m  12554 15191 l  p ef
0.207 0.398 0.644 c 12235 14555 m  12415 14555 12553 14692 12553 14872 ct 
12553 15052 12415 15189 12235 15189 ct 12055 15189 11918 15052 11918 14872 ct 
11918 14692 12055 14555 12235 14555 ct pc
11918 14555 m  11918 14555 l  pc
12554 15190 m  12554 15190 l  pc
pum
11999 15021 t
0.003 0.003 0.003 c 182 -66 m  182 0 l  147 0 l  147 -66 l  10 -66 l  10 -95 l 
143 -292 l  182 -292 l  182 -95 l  223 -95 l  223 -66 l  182 -66 l  p
147 -250 m  147 -249 146 -247 145 -245 ct 144 -243 142 -241 141 -239 ct 140 -236 138 -234 137 -231 ct 
135 -229 134 -226 133 -225 ct 58 -114 l  58 -113 57 -112 55 -110 ct 54 -108 53 -106 51 -104 ct 
50 -102 49 -101 47 -99 ct 46 -97 45 -96 44 -96 ct 147 -96 l  147 -250 l  p ef
454 -80 m  454 -67 451 -55 447 -45 ct 443 -34 436 -25 428 -18 ct 420 -11 410 -5 397 -2 ct 
385 2 371 4 355 4 ct 337 4 322 2 309 -3 ct 297 -7 287 -13 279 -20 ct 271 -28 265 -36 261 -46 ct 
257 -55 254 -65 253 -75 ct 292 -78 l  293 -71 295 -64 298 -57 ct 301 -51 305 -46 310 -41 ct 
315 -37 321 -33 329 -31 ct 336 -28 345 -27 355 -27 ct 374 -27 388 -31 399 -41 ct 
410 -50 415 -64 415 -82 ct 415 -92 413 -101 408 -108 ct 403 -114 397 -119 390 -123 ct 
383 -126 375 -129 367 -130 ct 359 -131 351 -132 344 -132 ct 323 -132 l  323 -164 l 
343 -164 l  350 -164 357 -165 365 -166 ct 373 -168 380 -171 386 -174 ct 392 -178 397 -183 401 -190 ct 
405 -196 407 -205 407 -215 ct 407 -230 403 -243 394 -252 ct 385 -261 371 -265 353 -265 ct 
336 -265 323 -261 313 -253 ct 303 -244 297 -232 295 -217 ct 258 -220 l  260 -233 263 -244 269 -254 ct 
274 -263 281 -271 290 -277 ct 298 -284 308 -288 319 -291 ct 329 -294 341 -296 353 -296 ct 
370 -296 384 -294 395 -290 ct 407 -286 416 -280 424 -273 ct 431 -266 437 -258 440 -249 ct 
444 -239 446 -229 446 -219 ct 446 -210 444 -202 442 -195 ct 440 -187 436 -180 431 -174 ct 
426 -169 420 -163 412 -159 ct 405 -155 395 -152 385 -149 ct 385 -149 l  396 -147 407 -145 415 -141 ct 
424 -137 431 -131 437 -125 ct 442 -119 447 -112 449 -105 ct 452 -97 454 -89 454 -80 ct 
p ef
pom
0.449 0.625 0.812 c 13535 14555 m  13715 14555 13853 14692 13853 14872 ct 
13853 15052 13715 15190 13535 15190 ct 13355 15190 13218 15052 13218 14872 ct 
13218 14692 13355 14555 13535 14555 ct p
13218 14555 m  13218 14555 l  p
13854 15191 m  13854 15191 l  p ef
0.207 0.398 0.644 c 13535 14555 m  13715 14555 13853 14692 13853 14872 ct 
13853 15052 13715 15189 13535 15189 ct 13355 15189 13218 15052 13218 14872 ct 
13218 14692 13355 14555 13535 14555 ct pc
13218 14555 m  13218 14555 l  pc
13854 15190 m  13854 15190 l  pc
pum
13298 15021 t
0.003 0.003 0.003 c 217 -95 m  217 -80 215 -67 211 -55 ct 206 -43 200 -32 191 -24 ct 
183 -15 172 -8 159 -3 ct 146 2 131 4 114 4 ct 99 4 86 2 74 -1 ct 63 -5 53 -10 45 -16 ct 
38 -22 31 -30 27 -38 ct 22 -47 19 -56 17 -65 ct 55 -70 l  56 -64 58 -59 61 -54 ct 
64 -48 67 -44 72 -40 ct 77 -36 83 -32 90 -30 ct 97 -28 105 -26 115 -26 ct 125 -26 133 -28 141 -31 ct 
149 -34 156 -38 161 -44 ct 167 -50 171 -57 174 -65 ct 177 -74 179 -83 179 -94 ct 
179 -103 177 -111 175 -119 ct 172 -126 168 -133 162 -138 ct 157 -144 150 -148 142 -151 ct 
135 -154 126 -156 116 -156 ct 110 -156 104 -155 99 -154 ct 93 -153 89 -151 84 -149 ct 
80 -147 76 -145 72 -143 ct 68 -140 65 -137 62 -135 ct 25 -135 l  35 -292 l  201 -292 l 
201 -260 l  69 -260 l  63 -167 l  70 -173 78 -177 88 -181 ct 98 -184 110 -186 124 -186 ct 
138 -186 151 -184 163 -179 ct 174 -175 184 -169 192 -161 ct 200 -153 206 -143 211 -132 ct 
215 -121 217 -108 217 -95 ct p ef
454 -80 m  454 -67 451 -55 447 -45 ct 443 -34 436 -25 428 -18 ct 420 -11 410 -5 397 -2 ct 
385 2 371 4 355 4 ct 337 4 322 2 309 -3 ct 297 -7 287 -13 279 -20 ct 271 -28 265 -36 261 -46 ct 
257 -55 254 -65 253 -75 ct 292 -78 l  293 -71 295 -64 298 -57 ct 301 -51 305 -46 310 -41 ct 
315 -37 321 -33 329 -31 ct 336 -28 345 -27 355 -27 ct 374 -27 388 -31 399 -41 ct 
410 -50 415 -64 415 -82 ct 415 -92 413 -101 408 -108 ct 403 -114 397 -119 390 -123 ct 
383 -126 375 -129 367 -130 ct 359 -131 351 -132 344 -132 ct 323 -132 l  323 -164 l 
343 -164 l  350 -164 357 -165 365 -166 ct 373 -168 380 -171 386 -174 ct 392 -178 397 -183 401 -190 ct 
405 -196 407 -205 407 -215 ct 407 -230 403 -243 394 -252 ct 385 -261 371 -265 353 -265 ct 
336 -265 323 -261 313 -253 ct 303 -244 297 -232 295 -217 ct 258 -220 l  260 -233 263 -244 269 -254 ct 
274 -263 281 -271 290 -277 ct 298 -284 308 -288 319 -291 ct 329 -294 341 -296 353 -296 ct 
370 -296 384 -294 395 -290 ct 407 -286 416 -280 424 -273 ct 431 -266 437 -258 440 -249 ct 
444 -239 446 -229 446 -219 ct 446 -210 444 -202 442 -195 ct 440 -187 436 -180 431 -174 ct 
426 -169 420 -163 412 -159 ct 405 -155 395 -152 385 -149 ct 385 -149 l  396 -147 407 -145 415 -141 ct 
424 -137 431 -131 437 -125 ct 442 -119 447 -112 449 -105 ct 452 -97 454 -89 454 -80 ct 
p ef
pom
0.449 0.625 0.812 c 7237 16055 m  7417 16055 7555 16192 7555 16372 ct 7555 16552 7417 16690 7237 16690 ct 
7057 16690 6920 16552 6920 16372 ct 6920 16192 7057 16055 7237 16055 ct p
6920 16055 m  6920 16055 l  p
7556 16691 m  7556 16691 l  p ef
0.207 0.398 0.644 c 7236 16054 m  7416 16054 7554 16191 7554 16371 ct 7554 16551 7416 16689 7236 16689 ct 
7056 16689 6920 16551 6920 16371 ct 6920 16191 7056 16054 7236 16054 ct pc
6920 16054 m  6920 16054 l  pc
7555 16690 m  7555 16690 l  pc
pum
7000 16521 t
0.003 0.003 0.003 c 219 -146 m  219 -118 216 -94 211 -75 ct 205 -56 198 -41 189 -29 ct 
180 -17 169 -9 157 -4 ct 144 1 131 4 117 4 ct 103 4 90 1 77 -4 ct 65 -9 55 -17 46 -29 ct 
37 -41 29 -56 24 -75 ct 19 -94 17 -118 17 -146 ct 17 -175 19 -200 24 -219 ct 29 -238 37 -254 46 -265 ct 
55 -276 65 -284 78 -289 ct 90 -294 104 -296 118 -296 ct 132 -296 145 -294 157 -289 ct 
170 -284 180 -276 189 -265 ct 198 -254 206 -238 211 -219 ct 216 -200 219 -175 219 -146 ct 
p
181 -146 m  181 -169 180 -188 177 -204 ct 174 -219 170 -231 165 -241 ct 159 -250 153 -256 145 -260 ct 
137 -264 128 -266 118 -266 ct 108 -266 99 -264 91 -260 ct 83 -256 76 -250 71 -240 ct 
65 -231 61 -219 58 -204 ct 55 -188 54 -169 54 -146 ct 54 -124 56 -105 58 -90 ct 
61 -74 65 -62 71 -53 ct 76 -43 83 -37 91 -33 ct 99 -28 107 -26 118 -26 ct 127 -26 136 -28 144 -33 ct 
152 -37 158 -43 164 -53 ct 169 -62 174 -74 176 -90 ct 179 -105 181 -124 181 -146 ct 
p ef
419 -66 m  419 0 l  384 0 l  384 -66 l  247 -66 l  247 -95 l  380 -292 l 
419 -292 l  419 -95 l  460 -95 l  460 -66 l  419 -66 l  p
384 -250 m  384 -249 383 -247 382 -245 ct 381 -243 379 -241 378 -239 ct 377 -236 375 -234 374 -231 ct 
372 -229 371 -226 370 -225 ct 295 -114 l  295 -113 294 -112 292 -110 ct 291 -108 290 -106 288 -104 ct 
287 -102 286 -101 284 -99 ct 283 -97 282 -96 281 -96 ct 384 -96 l  384 -250 l 
p ef
pom
0.449 0.625 0.812 c 8537 16055 m  8716 16055 8854 16192 8854 16372 ct 8854 16552 8716 16690 8537 16690 ct 
8357 16690 8220 16552 8220 16372 ct 8220 16192 8357 16055 8537 16055 ct p
8220 16055 m  8220 16055 l  p
8855 16691 m  8855 16691 l  p ef
0.207 0.398 0.644 c 8536 16054 m  8716 16054 8854 16191 8854 16371 ct 8854 16551 8716 16689 8536 16689 ct 
8356 16689 8219 16551 8219 16371 ct 8219 16191 8356 16054 8536 16054 ct pc
8219 16054 m  8219 16054 l  pc
8855 16690 m  8855 16690 l  pc
pum
8300 16521 t
0.003 0.003 0.003 c 32 0 m  32 -32 l  106 -32 l  106 -256 l  41 -209 l  41 -244 l 
109 -292 l  144 -292 l  144 -32 l  215 -32 l  215 0 l  32 0 l  p ef
419 -66 m  419 0 l  384 0 l  384 -66 l  247 -66 l  247 -95 l  380 -292 l 
419 -292 l  419 -95 l  460 -95 l  460 -66 l  419 -66 l  p
384 -250 m  384 -249 383 -247 382 -245 ct 381 -243 379 -241 378 -239 ct 377 -236 375 -234 374 -231 ct 
372 -229 371 -226 370 -225 ct 295 -114 l  295 -113 294 -112 292 -110 ct 291 -108 290 -106 288 -104 ct 
287 -102 286 -101 284 -99 ct 283 -97 282 -96 281 -96 ct 384 -96 l  384 -250 l 
p ef
pom
0.449 0.625 0.812 c 9736 16055 m  9916 16055 10054 16192 10054 16372 ct 10054 16552 9916 16690 9736 16690 ct 
9556 16690 9419 16552 9419 16372 ct 9419 16192 9556 16055 9736 16055 ct p
9419 16055 m  9419 16055 l  p
10055 16691 m  10055 16691 l  p ef
0.207 0.398 0.644 c 9736 16054 m  9916 16054 10054 16191 10054 16371 ct 10054 16551 9916 16689 9736 16689 ct 
9556 16689 9419 16551 9419 16371 ct 9419 16191 9556 16054 9736 16054 ct pc
9419 16054 m  9419 16054 l  pc
10055 16690 m  10055 16690 l  pc
pum
9499 16521 t
0.003 0.003 0.003 c 21 0 m  21 -26 l  28 -42 37 -57 47 -69 ct 57 -81 68 -93 79 -103 ct 
90 -113 101 -122 112 -130 ct 123 -139 133 -148 142 -156 ct 151 -165 158 -174 163 -183 ct 
169 -192 171 -203 171 -215 ct 171 -223 170 -230 168 -237 ct 165 -243 161 -248 157 -253 ct 
152 -257 146 -260 140 -262 ct 133 -264 126 -265 118 -265 ct 111 -265 104 -264 97 -262 ct 
91 -260 85 -257 80 -253 ct 75 -249 70 -244 67 -238 ct 64 -231 62 -224 61 -216 ct 
23 -220 l  24 -230 27 -240 32 -249 ct 36 -258 42 -267 50 -274 ct 58 -281 68 -286 79 -290 ct 
90 -294 103 -296 118 -296 ct 133 -296 145 -294 157 -291 ct 168 -287 178 -282 185 -276 ct 
193 -269 199 -260 203 -250 ct 207 -241 209 -229 209 -216 ct 209 -206 208 -197 204 -188 ct 
201 -179 196 -171 190 -163 ct 184 -155 177 -147 170 -140 ct 162 -132 154 -125 146 -118 ct 
137 -111 129 -104 120 -97 ct 112 -90 104 -83 96 -76 ct 89 -69 82 -62 76 -54 ct 
70 -47 65 -40 62 -32 ct 214 -32 l  214 0 l  21 0 l  p ef
419 -66 m  419 0 l  384 0 l  384 -66 l  247 -66 l  247 -95 l  380 -292 l 
419 -292 l  419 -95 l  460 -95 l  460 -66 l  419 -66 l  p
384 -250 m  384 -249 383 -247 382 -245 ct 381 -243 379 -241 378 -239 ct 377 -236 375 -234 374 -231 ct 
372 -229 371 -226 370 -225 ct 295 -114 l  295 -113 294 -112 292 -110 ct 291 -108 290 -106 288 -104 ct 
287 -102 286 -101 284 -99 ct 283 -97 282 -96 281 -96 ct 384 -96 l  384 -250 l 
p ef
pom
0.449 0.625 0.812 c 10936 16055 m  11116 16055 11254 16192 11254 16372 ct 
11254 16552 11116 16690 10936 16690 ct 10756 16690 10619 16552 10619 16372 ct 
10619 16192 10756 16055 10936 16055 ct p
10619 16055 m  10619 16055 l  p
11255 16691 m  11255 16691 l  p ef
0.207 0.398 0.644 c 10935 16054 m  11115 16054 11253 16191 11253 16371 ct 
11253 16551 11115 16689 10935 16689 ct 10755 16689 10618 16551 10618 16371 ct 
10618 16191 10755 16054 10935 16054 ct pc
10618 16054 m  10618 16054 l  pc
11254 16690 m  11254 16690 l  pc
pum
10699 16521 t
0.003 0.003 0.003 c 217 -80 m  217 -67 214 -55 210 -45 ct 206 -34 199 -25 191 -18 ct 
183 -11 173 -5 160 -2 ct 148 2 134 4 118 4 ct 100 4 85 2 72 -3 ct 60 -7 50 -13 42 -20 ct 
34 -28 28 -36 24 -46 ct 20 -55 17 -65 16 -75 ct 55 -78 l  56 -71 58 -64 61 -57 ct 
64 -51 68 -46 73 -41 ct 78 -37 84 -33 92 -31 ct 99 -28 108 -27 118 -27 ct 137 -27 151 -31 162 -41 ct 
173 -50 178 -64 178 -82 ct 178 -92 176 -101 171 -108 ct 166 -114 160 -119 153 -123 ct 
146 -126 138 -129 130 -130 ct 122 -131 114 -132 107 -132 ct 86 -132 l  86 -164 l 
106 -164 l  113 -164 120 -165 128 -166 ct 136 -168 143 -171 149 -174 ct 155 -178 160 -183 164 -190 ct 
168 -196 170 -205 170 -215 ct 170 -230 166 -243 157 -252 ct 148 -261 134 -265 116 -265 ct 
99 -265 86 -261 76 -253 ct 66 -244 60 -232 58 -217 ct 21 -220 l  23 -233 26 -244 32 -254 ct 
37 -263 44 -271 53 -277 ct 61 -284 71 -288 82 -291 ct 92 -294 104 -296 116 -296 ct 
133 -296 147 -294 158 -290 ct 170 -286 179 -280 187 -273 ct 194 -266 200 -258 203 -249 ct 
207 -239 209 -229 209 -219 ct 209 -210 207 -202 205 -195 ct 203 -187 199 -180 194 -174 ct 
189 -169 183 -163 175 -159 ct 168 -155 158 -152 148 -149 ct 148 -149 l  159 -147 170 -145 178 -141 ct 
187 -137 194 -131 200 -125 ct 205 -119 210 -112 212 -105 ct 215 -97 217 -89 217 -80 ct 
p ef
419 -66 m  419 0 l  384 0 l  384 -66 l  247 -66 l  247 -95 l  380 -292 l 
419 -292 l  419 -95 l  460 -95 l  460 -66 l  419 -66 l  p
384 -250 m  384 -249 383 -247 382 -245 ct 381 -243 379 -241 378 -239 ct 377 -236 375 -234 374 -231 ct 
372 -229 371 -226 370 -225 ct 295 -114 l  295 -113 294 -112 292 -110 ct 291 -108 290 -106 288 -104 ct 
287 -102 286 -101 284 -99 ct 283 -97 282 -96 281 -96 ct 384 -96 l  384 -250 l 
p ef
pom
0.449 0.625 0.812 c 12235 16055 m  12415 16055 12553 16192 12553 16372 ct 
12553 16552 12415 16690 12235 16690 ct 12056 16690 11919 16552 11919 16372 ct 
11919 16192 12056 16055 12235 16055 ct p
11919 16055 m  11919 16055 l  p
12554 16691 m  12554 16691 l  p ef
0.207 0.398 0.644 c 12235 16054 m  12415 16054 12553 16191 12553 16371 ct 
12553 16551 12415 16689 12235 16689 ct 12055 16689 11918 16551 11918 16371 ct 
11918 16191 12055 16054 12235 16054 ct pc
11918 16054 m  11918 16054 l  pc
12554 16690 m  12554 16690 l  pc
pum
11999 16521 t
0.003 0.003 0.003 c 182 -66 m  182 0 l  147 0 l  147 -66 l  10 -66 l  10 -95 l 
143 -292 l  182 -292 l  182 -95 l  223 -95 l  223 -66 l  182 -66 l  p
147 -250 m  147 -249 146 -247 145 -245 ct 144 -243 142 -241 141 -239 ct 140 -236 138 -234 137 -231 ct 
135 -229 134 -226 133 -225 ct 58 -114 l  58 -113 57 -112 55 -110 ct 54 -108 53 -106 51 -104 ct 
50 -102 49 -101 47 -99 ct 46 -97 45 -96 44 -96 ct 147 -96 l  147 -250 l  p ef
419 -66 m  419 0 l  384 0 l  384 -66 l  247 -66 l  247 -95 l  380 -292 l 
419 -292 l  419 -95 l  460 -95 l  460 -66 l  419 -66 l  p
384 -250 m  384 -249 383 -247 382 -245 ct 381 -243 379 -241 378 -239 ct 377 -236 375 -234 374 -231 ct 
372 -229 371 -226 370 -225 ct 295 -114 l  295 -113 294 -112 292 -110 ct 291 -108 290 -106 288 -104 ct 
287 -102 286 -101 284 -99 ct 283 -97 282 -96 281 -96 ct 384 -96 l  384 -250 l 
p ef
pom
0.449 0.625 0.812 c 13535 16055 m  13715 16055 13853 16192 13853 16372 ct 
13853 16552 13715 16690 13535 16690 ct 13355 16690 13218 16552 13218 16372 ct 
13218 16192 13355 16055 13535 16055 ct p
13218 16055 m  13218 16055 l  p
13854 16691 m  13854 16691 l  p ef
0.207 0.398 0.644 c 13535 16054 m  13715 16054 13853 16191 13853 16371 ct 
13853 16551 13715 16689 13535 16689 ct 13355 16689 13218 16551 13218 16371 ct 
13218 16191 13355 16054 13535 16054 ct pc
13218 16054 m  13218 16054 l  pc
13854 16690 m  13854 16690 l  pc
pum
13298 16521 t
0.003 0.003 0.003 c 217 -95 m  217 -80 215 -67 211 -55 ct 206 -43 200 -32 191 -24 ct 
183 -15 172 -8 159 -3 ct 146 2 131 4 114 4 ct 99 4 86 2 74 -1 ct 63 -5 53 -10 45 -16 ct 
38 -22 31 -30 27 -38 ct 22 -47 19 -56 17 -65 ct 55 -70 l  56 -64 58 -59 61 -54 ct 
64 -48 67 -44 72 -40 ct 77 -36 83 -32 90 -30 ct 97 -28 105 -26 115 -26 ct 125 -26 133 -28 141 -31 ct 
149 -34 156 -38 161 -44 ct 167 -50 171 -57 174 -65 ct 177 -74 179 -83 179 -94 ct 
179 -103 177 -111 175 -119 ct 172 -126 168 -133 162 -138 ct 157 -144 150 -148 142 -151 ct 
135 -154 126 -156 116 -156 ct 110 -156 104 -155 99 -154 ct 93 -153 89 -151 84 -149 ct 
80 -147 76 -145 72 -143 ct 68 -140 65 -137 62 -135 ct 25 -135 l  35 -292 l  201 -292 l 
201 -260 l  69 -260 l  63 -167 l  70 -173 78 -177 88 -181 ct 98 -184 110 -186 124 -186 ct 
138 -186 151 -184 163 -179 ct 174 -175 184 -169 192 -161 ct 200 -153 206 -143 211 -132 ct 
215 -121 217 -108 217 -95 ct p ef
419 -66 m  419 0 l  384 0 l  384 -66 l  247 -66 l  247 -95 l  380 -292 l 
419 -292 l  419 -95 l  460 -95 l  460 -66 l  419 -66 l  p
384 -250 m  384 -249 383 -247 382 -245 ct 381 -243 379 -241 378 -239 ct 377 -236 375 -234 374 -231 ct 
372 -229 371 -226 370 -225 ct 295 -114 l  295 -113 294 -112 292 -110 ct 291 -108 290 -106 288 -104 ct 
287 -102 286 -101 284 -99 ct 283 -97 282 -96 281 -96 ct 384 -96 l  384 -250 l 
p ef
pom
0.449 0.625 0.812 c 7237 17454 m  7417 17454 7555 17591 7555 17771 ct 7555 17951 7417 18089 7237 18089 ct 
7057 18089 6920 17951 6920 17771 ct 6920 17591 7057 17454 7237 17454 ct p
6920 17454 m  6920 17454 l  p
7556 18090 m  7556 18090 l  p ef
0.207 0.398 0.644 c 7236 17454 m  7416 17454 7554 17591 7554 17771 ct 7554 17951 7416 18089 7236 18089 ct 
7056 18089 6920 17951 6920 17771 ct 6920 17591 7056 17454 7236 17454 ct pc
6920 17454 m  6920 17454 l  pc
7555 18090 m  7555 18090 l  pc
pum
7000 17920 t
0.003 0.003 0.003 c 219 -146 m  219 -118 216 -94 211 -75 ct 205 -56 198 -41 189 -29 ct 
180 -17 169 -9 157 -4 ct 144 1 131 4 117 4 ct 103 4 90 1 77 -4 ct 65 -9 55 -17 46 -29 ct 
37 -41 29 -56 24 -75 ct 19 -94 17 -118 17 -146 ct 17 -175 19 -200 24 -219 ct 29 -238 37 -254 46 -265 ct 
55 -276 65 -284 78 -289 ct 90 -294 104 -296 118 -296 ct 132 -296 145 -294 157 -289 ct 
170 -284 180 -276 189 -265 ct 198 -254 206 -238 211 -219 ct 216 -200 219 -175 219 -146 ct 
p
181 -146 m  181 -169 180 -188 177 -204 ct 174 -219 170 -231 165 -241 ct 159 -250 153 -256 145 -260 ct 
137 -264 128 -266 118 -266 ct 108 -266 99 -264 91 -260 ct 83 -256 76 -250 71 -240 ct 
65 -231 61 -219 58 -204 ct 55 -188 54 -169 54 -146 ct 54 -124 56 -105 58 -90 ct 
61 -74 65 -62 71 -53 ct 76 -43 83 -37 91 -33 ct 99 -28 107 -26 118 -26 ct 127 -26 136 -28 144 -33 ct 
152 -37 158 -43 164 -53 ct 169 -62 174 -74 176 -90 ct 179 -105 181 -124 181 -146 ct 
p ef
454 -95 m  454 -80 452 -67 448 -55 ct 443 -43 437 -32 428 -24 ct 420 -15 409 -8 396 -3 ct 
383 2 368 4 351 4 ct 336 4 323 2 311 -1 ct 300 -5 290 -10 282 -16 ct 275 -22 268 -30 264 -38 ct 
259 -47 256 -56 254 -65 ct 292 -70 l  293 -64 295 -59 298 -54 ct 301 -48 304 -44 309 -40 ct 
314 -36 320 -32 327 -30 ct 334 -28 342 -26 352 -26 ct 362 -26 370 -28 378 -31 ct 
386 -34 393 -38 398 -44 ct 404 -50 408 -57 411 -65 ct 414 -74 416 -83 416 -94 ct 
416 -103 414 -111 412 -119 ct 409 -126 405 -133 399 -138 ct 394 -144 387 -148 379 -151 ct 
372 -154 363 -156 353 -156 ct 347 -156 341 -155 336 -154 ct 330 -153 326 -151 321 -149 ct 
317 -147 313 -145 309 -143 ct 305 -140 302 -137 299 -135 ct 262 -135 l  272 -292 l 
438 -292 l  438 -260 l  306 -260 l  300 -167 l  307 -173 315 -177 325 -181 ct 
335 -184 347 -186 361 -186 ct 375 -186 388 -184 400 -179 ct 411 -175 421 -169 429 -161 ct 
437 -153 443 -143 448 -132 ct 452 -121 454 -108 454 -95 ct p ef
pom
0.449 0.625 0.812 c 8537 17454 m  8716 17454 8854 17591 8854 17771 ct 8854 17951 8716 18089 8537 18089 ct 
8357 18089 8220 17951 8220 17771 ct 8220 17591 8357 17454 8537 17454 ct p
8220 17454 m  8220 17454 l  p
8855 18090 m  8855 18090 l  p ef
0.207 0.398 0.644 c 8536 17454 m  8716 17454 8854 17591 8854 17771 ct 8854 17951 8716 18089 8536 18089 ct 
8356 18089 8219 17951 8219 17771 ct 8219 17591 8356 17454 8536 17454 ct pc
8219 17454 m  8219 17454 l  pc
8855 18090 m  8855 18090 l  pc
pum
8300 17920 t
0.003 0.003 0.003 c 32 0 m  32 -32 l  106 -32 l  106 -256 l  41 -209 l  41 -244 l 
109 -292 l  144 -292 l  144 -32 l  215 -32 l  215 0 l  32 0 l  p ef
454 -95 m  454 -80 452 -67 448 -55 ct 443 -43 437 -32 428 -24 ct 420 -15 409 -8 396 -3 ct 
383 2 368 4 351 4 ct 336 4 323 2 311 -1 ct 300 -5 290 -10 282 -16 ct 275 -22 268 -30 264 -38 ct 
259 -47 256 -56 254 -65 ct 292 -70 l  293 -64 295 -59 298 -54 ct 301 -48 304 -44 309 -40 ct 
314 -36 320 -32 327 -30 ct 334 -28 342 -26 352 -26 ct 362 -26 370 -28 378 -31 ct 
386 -34 393 -38 398 -44 ct 404 -50 408 -57 411 -65 ct 414 -74 416 -83 416 -94 ct 
416 -103 414 -111 412 -119 ct 409 -126 405 -133 399 -138 ct 394 -144 387 -148 379 -151 ct 
372 -154 363 -156 353 -156 ct 347 -156 341 -155 336 -154 ct 330 -153 326 -151 321 -149 ct 
317 -147 313 -145 309 -143 ct 305 -140 302 -137 299 -135 ct 262 -135 l  272 -292 l 
438 -292 l  438 -260 l  306 -260 l  300 -167 l  307 -173 315 -177 325 -181 ct 
335 -184 347 -186 361 -186 ct 375 -186 388 -184 400 -179 ct 411 -175 421 -169 429 -161 ct 
437 -153 443 -143 448 -132 ct 452 -121 454 -108 454 -95 ct p ef
pom
0.449 0.625 0.812 c 9736 17454 m  9916 17454 10054 17591 10054 17771 ct 10054 17951 9916 18089 9736 18089 ct 
9556 18089 9419 17951 9419 17771 ct 9419 17591 9556 17454 9736 17454 ct p
9419 17454 m  9419 17454 l  p
10055 18090 m  10055 18090 l  p ef
0.207 0.398 0.644 c 9736 17454 m  9916 17454 10054 17591 10054 17771 ct 10054 17951 9916 18089 9736 18089 ct 
9556 18089 9419 17951 9419 17771 ct 9419 17591 9556 17454 9736 17454 ct pc
9419 17454 m  9419 17454 l  pc
10055 18090 m  10055 18090 l  pc
pum
9499 17920 t
0.003 0.003 0.003 c 21 0 m  21 -26 l  28 -42 37 -57 47 -69 ct 57 -81 68 -93 79 -103 ct 
90 -113 101 -122 112 -130 ct 123 -139 133 -148 142 -156 ct 151 -165 158 -174 163 -183 ct 
169 -192 171 -203 171 -215 ct 171 -223 170 -230 168 -237 ct 165 -243 161 -248 157 -253 ct 
152 -257 146 -260 140 -262 ct 133 -264 126 -265 118 -265 ct 111 -265 104 -264 97 -262 ct 
91 -260 85 -257 80 -253 ct 75 -249 70 -244 67 -238 ct 64 -231 62 -224 61 -216 ct 
23 -220 l  24 -230 27 -240 32 -249 ct 36 -258 42 -267 50 -274 ct 58 -281 68 -286 79 -290 ct 
90 -294 103 -296 118 -296 ct 133 -296 145 -294 157 -291 ct 168 -287 178 -282 185 -276 ct 
193 -269 199 -260 203 -250 ct 207 -241 209 -229 209 -216 ct 209 -206 208 -197 204 -188 ct 
201 -179 196 -171 190 -163 ct 184 -155 177 -147 170 -140 ct 162 -132 154 -125 146 -118 ct 
137 -111 129 -104 120 -97 ct 112 -90 104 -83 96 -76 ct 89 -69 82 -62 76 -54 ct 
70 -47 65 -40 62 -32 ct 214 -32 l  214 0 l  21 0 l  p ef
454 -95 m  454 -80 452 -67 448 -55 ct 443 -43 437 -32 428 -24 ct 420 -15 409 -8 396 -3 ct 
383 2 368 4 351 4 ct 336 4 323 2 311 -1 ct 300 -5 290 -10 282 -16 ct 275 -22 268 -30 264 -38 ct 
259 -47 256 -56 254 -65 ct 292 -70 l  293 -64 295 -59 298 -54 ct 301 -48 304 -44 309 -40 ct 
314 -36 320 -32 327 -30 ct 334 -28 342 -26 352 -26 ct 362 -26 370 -28 378 -31 ct 
386 -34 393 -38 398 -44 ct 404 -50 408 -57 411 -65 ct 414 -74 416 -83 416 -94 ct 
416 -103 414 -111 412 -119 ct 409 -126 405 -133 399 -138 ct 394 -144 387 -148 379 -151 ct 
372 -154 363 -156 353 -156 ct 347 -156 341 -155 336 -154 ct 330 -153 326 -151 321 -149 ct 
317 -147 313 -145 309 -143 ct 305 -140 302 -137 299 -135 ct 262 -135 l  272 -292 l 
438 -292 l  438 -260 l  306 -260 l  300 -167 l  307 -173 315 -177 325 -181 ct 
335 -184 347 -186 361 -186 ct 375 -186 388 -184 400 -179 ct 411 -175 421 -169 429 -161 ct 
437 -153 443 -143 448 -132 ct 452 -121 454 -108 454 -95 ct p ef
pom
0.449 0.625 0.812 c 10936 17454 m  11116 17454 11254 17591 11254 17771 ct 
11254 17951 11116 18089 10936 18089 ct 10756 18089 10619 17951 10619 17771 ct 
10619 17591 10756 17454 10936 17454 ct p
10619 17454 m  10619 17454 l  p
11255 18090 m  11255 18090 l  p ef
0.207 0.398 0.644 c 10935 17454 m  11115 17454 11253 17591 11253 17771 ct 
11253 17951 11115 18089 10935 18089 ct 10755 18089 10618 17951 10618 17771 ct 
10618 17591 10755 17454 10935 17454 ct pc
10618 17454 m  10618 17454 l  pc
11254 18090 m  11254 18090 l  pc
pum
10699 17920 t
0.003 0.003 0.003 c 217 -80 m  217 -67 214 -55 210 -45 ct 206 -34 199 -25 191 -18 ct 
183 -11 173 -5 160 -2 ct 148 2 134 4 118 4 ct 100 4 85 2 72 -3 ct 60 -7 50 -13 42 -20 ct 
34 -28 28 -36 24 -46 ct 20 -55 17 -65 16 -75 ct 55 -78 l  56 -71 58 -64 61 -57 ct 
64 -51 68 -46 73 -41 ct 78 -37 84 -33 92 -31 ct 99 -28 108 -27 118 -27 ct 137 -27 151 -31 162 -41 ct 
173 -50 178 -64 178 -82 ct 178 -92 176 -101 171 -108 ct 166 -114 160 -119 153 -123 ct 
146 -126 138 -129 130 -130 ct 122 -131 114 -132 107 -132 ct 86 -132 l  86 -164 l 
106 -164 l  113 -164 120 -165 128 -166 ct 136 -168 143 -171 149 -174 ct 155 -178 160 -183 164 -190 ct 
168 -196 170 -205 170 -215 ct 170 -230 166 -243 157 -252 ct 148 -261 134 -265 116 -265 ct 
99 -265 86 -261 76 -253 ct 66 -244 60 -232 58 -217 ct 21 -220 l  23 -233 26 -244 32 -254 ct 
37 -263 44 -271 53 -277 ct 61 -284 71 -288 82 -291 ct 92 -294 104 -296 116 -296 ct 
133 -296 147 -294 158 -290 ct 170 -286 179 -280 187 -273 ct 194 -266 200 -258 203 -249 ct 
207 -239 209 -229 209 -219 ct 209 -210 207 -202 205 -195 ct 203 -187 199 -180 194 -174 ct 
189 -169 183 -163 175 -159 ct 168 -155 158 -152 148 -149 ct 148 -149 l  159 -147 170 -145 178 -141 ct 
187 -137 194 -131 200 -125 ct 205 -119 210 -112 212 -105 ct 215 -97 217 -89 217 -80 ct 
p ef
454 -95 m  454 -80 452 -67 448 -55 ct 443 -43 437 -32 428 -24 ct 420 -15 409 -8 396 -3 ct 
383 2 368 4 351 4 ct 336 4 323 2 311 -1 ct 300 -5 290 -10 282 -16 ct 275 -22 268 -30 264 -38 ct 
259 -47 256 -56 254 -65 ct 292 -70 l  293 -64 295 -59 298 -54 ct 301 -48 304 -44 309 -40 ct 
314 -36 320 -32 327 -30 ct 334 -28 342 -26 352 -26 ct 362 -26 370 -28 378 -31 ct 
386 -34 393 -38 398 -44 ct 404 -50 408 -57 411 -65 ct 414 -74 416 -83 416 -94 ct 
416 -103 414 -111 412 -119 ct 409 -126 405 -133 399 -138 ct 394 -144 387 -148 379 -151 ct 
372 -154 363 -156 353 -156 ct 347 -156 341 -155 336 -154 ct 330 -153 326 -151 321 -149 ct 
317 -147 313 -145 309 -143 ct 305 -140 302 -137 299 -135 ct 262 -135 l  272 -292 l 
438 -292 l  438 -260 l  306 -260 l  300 -167 l  307 -173 315 -177 325 -181 ct 
335 -184 347 -186 361 -186 ct 375 -186 388 -184 400 -179 ct 411 -175 421 -169 429 -161 ct 
437 -153 443 -143 448 -132 ct 452 -121 454 -108 454 -95 ct p ef
pom
0.449 0.625 0.812 c 12235 17454 m  12415 17454 12553 17591 12553 17771 ct 
12553 17951 12415 18089 12235 18089 ct 12056 18089 11919 17951 11919 17771 ct 
11919 17591 12056 17454 12235 17454 ct p
11919 17454 m  11919 17454 l  p
12554 18090 m  12554 18090 l  p ef
0.207 0.398 0.644 c 12235 17454 m  12415 17454 12553 17591 12553 17771 ct 
12553 17951 12415 18089 12235 18089 ct 12055 18089 11918 17951 11918 17771 ct 
11918 17591 12055 17454 12235 17454 ct pc
11918 17454 m  11918 17454 l  pc
12554 18090 m  12554 18090 l  pc
pum
11999 17920 t
0.003 0.003 0.003 c 182 -66 m  182 0 l  147 0 l  147 -66 l  10 -66 l  10 -95 l 
143 -292 l  182 -292 l  182 -95 l  223 -95 l  223 -66 l  182 -66 l  p
147 -250 m  147 -249 146 -247 145 -245 ct 144 -243 142 -241 141 -239 ct 140 -236 138 -234 137 -231 ct 
135 -229 134 -226 133 -225 ct 58 -114 l  58 -113 57 -112 55 -110 ct 54 -108 53 -106 51 -104 ct 
50 -102 49 -101 47 -99 ct 46 -97 45 -96 44 -96 ct 147 -96 l  147 -250 l  p ef
454 -95 m  454 -80 452 -67 448 -55 ct 443 -43 437 -32 428 -24 ct 420 -15 409 -8 396 -3 ct 
383 2 368 4 351 4 ct 336 4 323 2 311 -1 ct 300 -5 290 -10 282 -16 ct 275 -22 268 -30 264 -38 ct 
259 -47 256 -56 254 -65 ct 292 -70 l  293 -64 295 -59 298 -54 ct 301 -48 304 -44 309 -40 ct 
314 -36 320 -32 327 -30 ct 334 -28 342 -26 352 -26 ct 362 -26 370 -28 378 -31 ct 
386 -34 393 -38 398 -44 ct 404 -50 408 -57 411 -65 ct 414 -74 416 -83 416 -94 ct 
416 -103 414 -111 412 -119 ct 409 -126 405 -133 399 -138 ct 394 -144 387 -148 379 -151 ct 
372 -154 363 -156 353 -156 ct 347 -156 341 -155 336 -154 ct 330 -153 326 -151 321 -149 ct 
317 -147 313 -145 309 -143 ct 305 -140 302 -137 299 -135 ct 262 -135 l  272 -292 l 
438 -292 l  438 -260 l  306 -260 l  300 -167 l  307 -173 315 -177 325 -181 ct 
335 -184 347 -186 361 -186 ct 375 -186 388 -184 400 -179 ct 411 -175 421 -169 429 -161 ct 
437 -153 443 -143 448 -132 ct 452 -121 454 -108 454 -95 ct p ef
pom
0.449 0.625 0.812 c 13535 17454 m  13715 17454 13853 17591 13853 17771 ct 
13853 17951 13715 18089 13535 18089 ct 13355 18089 13218 17951 13218 17771 ct 
13218 17591 13355 17454 13535 17454 ct p
13218 17454 m  13218 17454 l  p
13854 18090 m  13854 18090 l  p ef
0.207 0.398 0.644 c 13535 17454 m  13715 17454 13853 17591 13853 17771 ct 
13853 17951 13715 18089 13535 18089 ct 13355 18089 13218 17951 13218 17771 ct 
13218 17591 13355 17454 13535 17454 ct pc
13218 17454 m  13218 17454 l  pc
13854 18090 m  13854 18090 l  pc
pum
13298 17920 t
0.003 0.003 0.003 c 217 -95 m  217 -80 215 -67 211 -55 ct 206 -43 200 -32 191 -24 ct 
183 -15 172 -8 159 -3 ct 146 2 131 4 114 4 ct 99 4 86 2 74 -1 ct 63 -5 53 -10 45 -16 ct 
38 -22 31 -30 27 -38 ct 22 -47 19 -56 17 -65 ct 55 -70 l  56 -64 58 -59 61 -54 ct 
64 -48 67 -44 72 -40 ct 77 -36 83 -32 90 -30 ct 97 -28 105 -26 115 -26 ct 125 -26 133 -28 141 -31 ct 
149 -34 156 -38 161 -44 ct 167 -50 171 -57 174 -65 ct 177 -74 179 -83 179 -94 ct 
179 -103 177 -111 175 -119 ct 172 -126 168 -133 162 -138 ct 157 -144 150 -148 142 -151 ct 
135 -154 126 -156 116 -156 ct 110 -156 104 -155 99 -154 ct 93 -153 89 -151 84 -149 ct 
80 -147 76 -145 72 -143 ct 68 -140 65 -137 62 -135 ct 25 -135 l  35 -292 l  201 -292 l 
201 -260 l  69 -260 l  63 -167 l  70 -173 78 -177 88 -181 ct 98 -184 110 -186 124 -186 ct 
138 -186 151 -184 163 -179 ct 174 -175 184 -169 192 -161 ct 200 -153 206 -143 211 -132 ct 
215 -121 217 -108 217 -95 ct p ef
454 -95 m  454 -80 452 -67 448 -55 ct 443 -43 437 -32 428 -24 ct 420 -15 409 -8 396 -3 ct 
383 2 368 4 351 4 ct 336 4 323 2 311 -1 ct 300 -5 290 -10 282 -16 ct 275 -22 268 -30 264 -38 ct 
259 -47 256 -56 254 -65 ct 292 -70 l  293 -64 295 -59 298 -54 ct 301 -48 304 -44 309 -40 ct 
314 -36 320 -32 327 -30 ct 334 -28 342 -26 352 -26 ct 362 -26 370 -28 378 -31 ct 
386 -34 393 -38 398 -44 ct 404 -50 408 -57 411 -65 ct 414 -74 416 -83 416 -94 ct 
416 -103 414 -111 412 -119 ct 409 -126 405 -133 399 -138 ct 394 -144 387 -148 379 -151 ct 
372 -154 363 -156 353 -156 ct 347 -156 341 -155 336 -154 ct 330 -153 326 -151 321 -149 ct 
317 -147 313 -145 309 -143 ct 305 -140 302 -137 299 -135 ct 262 -135 l  272 -292 l 
438 -292 l  438 -260 l  306 -260 l  300 -167 l  307 -173 315 -177 325 -181 ct 
335 -184 347 -186 361 -186 ct 375 -186 388 -184 400 -179 ct 411 -175 421 -169 429 -161 ct 
437 -153 443 -143 448 -132 ct 452 -121 454 -108 454 -95 ct p ef
pom
1 lw 8491 15220 m  8491 15679 l  ps
8491 16109 m  8641 15659 l  8341 15659 l  8491 16109 l  p ef
9760 16109 m  9760 15523 l  ps
9760 15093 m  9610 15543 l  9910 15543 l  9760 15093 l  p ef
12223 12421 m  12223 12880 l  ps
12223 13309 m  12373 12860 l  12074 12860 l  12223 13309 l  p ef
10860 13310 m  10860 12725 l  ps
10860 12295 m  10710 12745 l  11010 12745 l  10860 12295 l  p ef
pum
7852 15536 t
95 -1 m  91 0 86 1 81 2 ct 76 3 71 3 64 3 ct 39 3 27 -11 27 -39 ct 27 -164 l  5 -164 l 
5 -187 l  28 -187 l  37 -228 l  58 -228 l  58 -187 l  92 -187 l  92 -164 l 
58 -164 l  58 -46 l  58 -37 59 -31 62 -27 ct 65 -23 70 -22 78 -22 ct 81 -22 83 -22 86 -22 ct 
89 -23 92 -23 95 -24 ct 95 -1 l  p ef
124 0 m  124 -26 l  186 -26 l  186 -213 l  131 -174 l  131 -204 l  188 -243 l 
217 -243 l  217 -26 l  276 -26 l  276 0 l  124 0 l  p ef
314 -92 m  314 -108 315 -123 318 -138 ct 320 -152 324 -166 329 -180 ct 334 -193 341 -206 349 -219 ct 
357 -232 366 -244 378 -256 ct 407 -256 l  397 -244 387 -232 379 -219 ct 372 -206 365 -193 360 -180 ct 
355 -166 351 -152 349 -137 ct 346 -123 345 -107 345 -91 ct 345 -76 346 -60 349 -46 ct 
351 -31 355 -17 360 -3 ct 365 10 372 23 379 36 ct 387 49 397 61 407 73 ct 378 73 l 
366 61 357 49 349 36 ct 341 23 334 10 329 -3 ct 324 -17 320 -31 318 -45 ct 315 -60 314 -75 314 -91 ct 
314 -92 l  p ef
435 -226 m  435 -256 l  466 -256 l  466 -226 l  435 -226 l  p
435 0 m  435 -187 l  466 -187 l  466 0 l  435 0 l  p ef
583 -91 m  583 -75 581 -60 579 -45 ct 577 -31 573 -17 568 -3 ct 562 10 556 23 548 36 ct 
540 49 530 61 519 73 ct 489 73 l  500 61 509 49 517 36 ct 525 23 531 10 536 -3 ct 
542 -17 545 -31 548 -46 ct 550 -60 551 -76 551 -91 ct 551 -107 550 -123 548 -137 ct 
545 -152 542 -166 536 -180 ct 531 -193 525 -206 517 -219 ct 509 -232 500 -244 489 -256 ct 
519 -256 l  530 -244 540 -232 548 -219 ct 556 -206 562 -193 568 -180 ct 573 -166 577 -152 579 -138 ct 
581 -123 583 -108 583 -92 ct 583 -91 l  p ef
pom
pum
9852 15837 t
95 -1 m  91 0 86 1 81 2 ct 76 3 71 3 64 3 ct 39 3 27 -11 27 -39 ct 27 -164 l  5 -164 l 
5 -187 l  28 -187 l  37 -228 l  58 -228 l  58 -187 l  92 -187 l  92 -164 l 
58 -164 l  58 -46 l  58 -37 59 -31 62 -27 ct 65 -23 70 -22 78 -22 ct 81 -22 83 -22 86 -22 ct 
89 -23 92 -23 95 -24 ct 95 -1 l  p ef
115 0 m  115 -22 l  121 -35 128 -47 136 -58 ct 145 -68 154 -77 163 -85 ct 172 -94 181 -101 191 -109 ct 
200 -116 208 -123 215 -130 ct 223 -137 229 -145 233 -152 ct 238 -160 240 -169 240 -179 ct 
240 -186 239 -192 237 -197 ct 235 -202 232 -207 228 -210 ct 224 -214 219 -217 214 -218 ct 
208 -220 202 -221 196 -221 ct 189 -221 184 -220 178 -218 ct 173 -217 168 -214 164 -211 ct 
159 -207 156 -203 153 -198 ct 150 -193 149 -187 148 -180 ct 116 -183 l  117 -192 120 -200 123 -208 ct 
127 -215 132 -222 139 -228 ct 146 -234 154 -238 163 -242 ct 172 -245 183 -247 196 -247 ct 
208 -247 218 -245 228 -242 ct 237 -239 245 -235 252 -229 ct 258 -224 263 -217 267 -209 ct 
270 -200 272 -191 272 -180 ct 272 -172 270 -164 267 -157 ct 264 -149 261 -142 256 -136 ct 
251 -129 245 -123 239 -116 ct 232 -110 226 -104 219 -98 ct 212 -92 204 -86 197 -81 ct 
190 -75 184 -69 177 -63 ct 171 -57 165 -51 160 -45 ct 155 -39 152 -33 149 -26 ct 
276 -26 l  276 0 l  115 0 l  p ef
314 -92 m  314 -108 315 -123 318 -138 ct 320 -152 324 -166 329 -180 ct 334 -193 341 -206 349 -219 ct 
357 -232 366 -244 378 -256 ct 407 -256 l  397 -244 387 -232 379 -219 ct 372 -206 365 -193 360 -180 ct 
355 -166 351 -152 349 -137 ct 346 -123 345 -107 345 -91 ct 345 -76 346 -60 349 -46 ct 
351 -31 355 -17 360 -3 ct 365 10 372 23 379 36 ct 387 49 397 61 407 73 ct 378 73 l 
366 61 357 49 349 36 ct 341 23 334 10 329 -3 ct 324 -17 320 -31 318 -45 ct 315 -60 314 -75 314 -91 ct 
314 -92 l  p ef
435 -226 m  435 -256 l  466 -256 l  466 -226 l  435 -226 l  p
435 0 m  435 -187 l  466 -187 l  466 0 l  435 0 l  p ef
583 -91 m  583 -75 581 -60 579 -45 ct 577 -31 573 -17 568 -3 ct 562 10 556 23 548 36 ct 
540 49 530 61 519 73 ct 489 73 l  500 61 509 49 517 36 ct 525 23 531 10 536 -3 ct 
542 -17 545 -31 548 -46 ct 550 -60 551 -76 551 -91 ct 551 -107 550 -123 548 -137 ct 
545 -152 542 -166 536 -180 ct 531 -193 525 -206 517 -219 ct 509 -232 500 -244 489 -256 ct 
519 -256 l  530 -244 540 -232 548 -219 ct 556 -206 562 -193 568 -180 ct 573 -166 577 -152 579 -138 ct 
581 -123 583 -108 583 -92 ct 583 -91 l  p ef
pom
pum
11653 12739 t
95 -1 m  91 0 86 1 81 2 ct 76 3 71 3 64 3 ct 39 3 27 -11 27 -39 ct 27 -164 l  5 -164 l 
5 -187 l  28 -187 l  37 -228 l  58 -228 l  58 -187 l  92 -187 l  92 -164 l 
58 -164 l  58 -46 l  58 -37 59 -31 62 -27 ct 65 -23 70 -22 78 -22 ct 81 -22 83 -22 86 -22 ct 
89 -23 92 -23 95 -24 ct 95 -1 l  p ef
278 -68 m  278 -57 276 -47 272 -38 ct 269 -29 263 -22 257 -16 ct 250 -10 241 -5 231 -2 ct 
220 1 209 3 195 3 ct 180 3 168 1 157 -3 ct 147 -6 139 -11 132 -17 ct 125 -24 120 -31 117 -39 ct 
114 -46 111 -55 110 -63 ct 143 -66 l  143 -60 145 -54 148 -48 ct 150 -43 153 -38 158 -35 ct 
162 -31 167 -28 173 -26 ct 180 -24 187 -23 195 -23 ct 211 -23 223 -27 232 -34 ct 
241 -42 246 -54 246 -69 ct 246 -78 244 -85 240 -90 ct 236 -96 231 -100 225 -103 ct 
219 -106 212 -108 206 -109 ct 199 -110 192 -111 186 -111 ct 169 -111 l  169 -138 l 
186 -138 l  191 -138 198 -139 204 -140 ct 210 -141 216 -143 221 -146 ct 226 -149 231 -154 234 -159 ct 
238 -164 239 -171 239 -180 ct 239 -193 235 -203 228 -210 ct 220 -218 209 -221 194 -221 ct 
180 -221 169 -218 161 -211 ct 152 -204 147 -194 146 -182 ct 115 -184 l  116 -195 119 -204 123 -212 ct 
128 -220 134 -226 141 -231 ct 148 -237 156 -241 165 -243 ct 174 -246 184 -247 194 -247 ct 
208 -247 219 -245 229 -242 ct 239 -239 247 -234 253 -228 ct 259 -222 264 -216 267 -208 ct 
270 -200 271 -192 271 -183 ct 271 -176 270 -169 268 -163 ct 266 -157 263 -151 259 -146 ct 
255 -141 250 -137 243 -134 ct 237 -130 229 -127 220 -125 ct 220 -125 l  230 -124 239 -122 246 -118 ct 
253 -115 259 -111 264 -105 ct 268 -100 272 -95 274 -88 ct 277 -82 278 -75 278 -68 ct 
p ef
314 -92 m  314 -108 315 -123 318 -138 ct 320 -152 324 -166 329 -180 ct 334 -193 341 -206 349 -219 ct 
357 -232 366 -244 378 -256 ct 407 -256 l  397 -244 387 -232 379 -219 ct 372 -206 365 -193 360 -180 ct 
355 -166 351 -152 349 -137 ct 346 -123 345 -107 345 -91 ct 345 -76 346 -60 349 -46 ct 
351 -31 355 -17 360 -3 ct 365 10 372 23 379 36 ct 387 49 397 61 407 73 ct 378 73 l 
366 61 357 49 349 36 ct 341 23 334 10 329 -3 ct 324 -17 320 -31 318 -45 ct 315 -60 314 -75 314 -91 ct 
314 -92 l  p ef
435 -226 m  435 -256 l  466 -256 l  466 -226 l  435 -226 l  p
435 0 m  435 -187 l  466 -187 l  466 0 l  435 0 l  p ef
583 -91 m  583 -75 581 -60 579 -45 ct 577 -31 573 -17 568 -3 ct 562 10 556 23 548 36 ct 
540 49 530 61 519 73 ct 489 73 l  500 61 509 49 517 36 ct 525 23 531 10 536 -3 ct 
542 -17 545 -31 548 -46 ct 550 -60 551 -76 551 -91 ct 551 -107 550 -123 548 -137 ct 
545 -152 542 -166 536 -180 ct 531 -193 525 -206 517 -219 ct 509 -232 500 -244 489 -256 ct 
519 -256 l  530 -244 540 -232 548 -219 ct 556 -206 562 -193 568 -180 ct 573 -166 577 -152 579 -138 ct 
581 -123 583 -108 583 -92 ct 583 -91 l  p ef
pom
pum
10954 13040 t
95 -1 m  91 0 86 1 81 2 ct 76 3 71 3 64 3 ct 39 3 27 -11 27 -39 ct 27 -164 l  5 -164 l 
5 -187 l  28 -187 l  37 -228 l  58 -228 l  58 -187 l  92 -187 l  92 -164 l 
58 -164 l  58 -46 l  58 -37 59 -31 62 -27 ct 65 -23 70 -22 78 -22 ct 81 -22 83 -22 86 -22 ct 
89 -23 92 -23 95 -24 ct 95 -1 l  p ef
249 -55 m  249 0 l  220 0 l  220 -55 l  105 -55 l  105 -79 l  216 -243 l 
249 -243 l  249 -79 l  283 -79 l  283 -55 l  249 -55 l  p
220 -208 m  219 -207 219 -206 218 -205 ct 217 -203 216 -201 215 -199 ct 214 -197 212 -195 211 -193 ct 
210 -191 209 -189 208 -187 ct 146 -95 l  145 -94 144 -93 143 -91 ct 142 -90 141 -88 140 -87 ct 
139 -85 138 -84 136 -82 ct 135 -81 134 -80 134 -80 ct 220 -80 l  220 -208 l 
p ef
314 -92 m  314 -108 315 -123 318 -138 ct 320 -152 324 -166 329 -180 ct 334 -193 341 -206 349 -219 ct 
357 -232 366 -244 378 -256 ct 407 -256 l  397 -244 387 -232 379 -219 ct 372 -206 365 -193 360 -180 ct 
355 -166 351 -152 349 -137 ct 346 -123 345 -107 345 -91 ct 345 -76 346 -60 349 -46 ct 
351 -31 355 -17 360 -3 ct 365 10 372 23 379 36 ct 387 49 397 61 407 73 ct 378 73 l 
366 61 357 49 349 36 ct 341 23 334 10 329 -3 ct 324 -17 320 -31 318 -45 ct 315 -60 314 -75 314 -91 ct 
314 -92 l  p ef
435 -226 m  435 -256 l  466 -256 l  466 -226 l  435 -226 l  p
435 0 m  435 -187 l  466 -187 l  466 0 l  435 0 l  p ef
583 -91 m  583 -75 581 -60 579 -45 ct 577 -31 573 -17 568 -3 ct 562 10 556 23 548 36 ct 
540 49 530 61 519 73 ct 489 73 l  500 61 509 49 517 36 ct 525 23 531 10 536 -3 ct 
542 -17 545 -31 548 -46 ct 550 -60 551 -76 551 -91 ct 551 -107 550 -123 548 -137 ct 
545 -152 542 -166 536 -180 ct 531 -193 525 -206 517 -219 ct 509 -232 500 -244 489 -256 ct 
519 -256 l  530 -244 540 -232 548 -219 ct 556 -206 562 -193 568 -180 ct 573 -166 577 -152 579 -138 ct 
581 -123 583 -108 583 -92 ct 583 -91 l  p ef
pom
1.000 0.203 0.203 c 8871 16363 m  8947 16363 l  ps
8998 16363 m  9074 16363 l  ps
9111 16482 m  9087 16513 l  9506 16363 l  9087 16213 l  9109 16243 l  9127 16279 l 
9140 16319 l  9144 16361 l  9141 16404 l  9129 16445 l  9111 16482 l  p ef
9379 14839 m  9326 14839 l  ps
9273 14839 m  9270 14839 l  ps
9266 14720 m  9290 14689 l  8871 14839 l  9290 14989 l  9268 14959 l  9250 14923 l 
9237 14883 l  9233 14841 l  9236 14798 l  9248 14757 l  9266 14720 l  p ef
pum
8767 14597 t
0.003 0.003 0.003 c 95 -1 m  91 0 86 1 81 2 ct 76 3 71 3 64 3 ct 39 3 27 -11 27 -39 ct 
27 -164 l  5 -164 l  5 -187 l  28 -187 l  37 -228 l  58 -228 l  58 -187 l 
92 -187 l  92 -164 l  58 -164 l  58 -46 l  58 -37 59 -31 62 -27 ct 65 -23 70 -22 78 -22 ct 
81 -22 83 -22 86 -22 ct 89 -23 92 -23 95 -24 ct 95 -1 l  p ef
249 -55 m  249 0 l  220 0 l  220 -55 l  105 -55 l  105 -79 l  216 -243 l 
249 -243 l  249 -79 l  283 -79 l  283 -55 l  249 -55 l  p
220 -208 m  219 -207 219 -206 218 -205 ct 217 -203 216 -201 215 -199 ct 214 -197 212 -195 211 -193 ct 
210 -191 209 -189 208 -187 ct 146 -95 l  145 -94 144 -93 143 -91 ct 142 -90 141 -88 140 -87 ct 
139 -85 138 -84 136 -82 ct 135 -81 134 -80 134 -80 ct 220 -80 l  220 -208 l 
p ef
314 -92 m  314 -108 315 -123 318 -138 ct 320 -152 324 -166 329 -180 ct 334 -193 341 -206 349 -219 ct 
357 -232 366 -244 378 -256 ct 407 -256 l  397 -244 387 -232 379 -219 ct 372 -206 365 -193 360 -180 ct 
355 -166 351 -152 349 -137 ct 346 -123 345 -107 345 -91 ct 345 -76 346 -60 349 -46 ct 
351 -31 355 -17 360 -3 ct 365 10 372 23 379 36 ct 387 49 397 61 407 73 ct 378 73 l 
366 61 357 49 349 36 ct 341 23 334 10 329 -3 ct 324 -17 320 -31 318 -45 ct 315 -60 314 -75 314 -91 ct 
314 -92 l  p ef
435 -226 m  435 -256 l  466 -256 l  466 -226 l  435 -226 l  p
435 0 m  435 -187 l  466 -187 l  466 0 l  435 0 l  p ef
503 -80 m  503 -108 l  589 -108 l  589 -80 l  503 -80 l  p ef
632 0 m  632 -26 l  694 -26 l  694 -213 l  639 -174 l  639 -204 l  696 -243 l 
725 -243 l  725 -26 l  784 -26 l  784 0 l  632 0 l  p ef
896 -91 m  896 -75 894 -60 892 -45 ct 890 -31 886 -17 881 -3 ct 875 10 869 23 861 36 ct 
853 49 843 61 832 73 ct 802 73 l  813 61 822 49 830 36 ct 838 23 844 10 849 -3 ct 
855 -17 858 -31 861 -46 ct 863 -60 864 -76 864 -91 ct 864 -107 863 -123 861 -137 ct 
858 -152 855 -166 849 -180 ct 844 -193 838 -206 830 -219 ct 822 -232 813 -244 802 -256 ct 
832 -256 l  843 -244 853 -232 861 -219 ct 869 -206 875 -193 881 -180 ct 886 -166 890 -152 892 -138 ct 
894 -123 896 -108 896 -92 ct 896 -91 l  p ef
pom
pum
8867 16897 t
95 -1 m  91 0 86 1 81 2 ct 76 3 71 3 64 3 ct 39 3 27 -11 27 -39 ct 27 -164 l  5 -164 l 
5 -187 l  28 -187 l  37 -228 l  58 -228 l  58 -187 l  92 -187 l  92 -164 l 
58 -164 l  58 -46 l  58 -37 59 -31 62 -27 ct 65 -23 70 -22 78 -22 ct 81 -22 83 -22 86 -22 ct 
89 -23 92 -23 95 -24 ct 95 -1 l  p ef
278 -68 m  278 -57 276 -47 272 -38 ct 269 -29 263 -22 257 -16 ct 250 -10 241 -5 231 -2 ct 
220 1 209 3 195 3 ct 180 3 168 1 157 -3 ct 147 -6 139 -11 132 -17 ct 125 -24 120 -31 117 -39 ct 
114 -46 111 -55 110 -63 ct 143 -66 l  143 -60 145 -54 148 -48 ct 150 -43 153 -38 158 -35 ct 
162 -31 167 -28 173 -26 ct 180 -24 187 -23 195 -23 ct 211 -23 223 -27 232 -34 ct 
241 -42 246 -54 246 -69 ct 246 -78 244 -85 240 -90 ct 236 -96 231 -100 225 -103 ct 
219 -106 212 -108 206 -109 ct 199 -110 192 -111 186 -111 ct 169 -111 l  169 -138 l 
186 -138 l  191 -138 198 -139 204 -140 ct 210 -141 216 -143 221 -146 ct 226 -149 231 -154 234 -159 ct 
238 -164 239 -171 239 -180 ct 239 -193 235 -203 228 -210 ct 220 -218 209 -221 194 -221 ct 
180 -221 169 -218 161 -211 ct 152 -204 147 -194 146 -182 ct 115 -184 l  116 -195 119 -204 123 -212 ct 
128 -220 134 -226 141 -231 ct 148 -237 156 -241 165 -243 ct 174 -246 184 -247 194 -247 ct 
208 -247 219 -245 229 -242 ct 239 -239 247 -234 253 -228 ct 259 -222 264 -216 267 -208 ct 
270 -200 271 -192 271 -183 ct 271 -176 270 -169 268 -163 ct 266 -157 263 -151 259 -146 ct 
255 -141 250 -137 243 -134 ct 237 -130 229 -127 220 -125 ct 220 -125 l  230 -124 239 -122 246 -118 ct 
253 -115 259 -111 264 -105 ct 268 -100 272 -95 274 -88 ct 277 -82 278 -75 278 -68 ct 
p ef
314 -92 m  314 -108 315 -123 318 -138 ct 320 -152 324 -166 329 -180 ct 334 -193 341 -206 349 -219 ct 
357 -232 366 -244 378 -256 ct 407 -256 l  397 -244 387 -232 379 -219 ct 372 -206 365 -193 360 -180 ct 
355 -166 351 -152 349 -137 ct 346 -123 345 -107 345 -91 ct 345 -76 346 -60 349 -46 ct 
351 -31 355 -17 360 -3 ct 365 10 372 23 379 36 ct 387 49 397 61 407 73 ct 378 73 l 
366 61 357 49 349 36 ct 341 23 334 10 329 -3 ct 324 -17 320 -31 318 -45 ct 315 -60 314 -75 314 -91 ct 
314 -92 l  p ef
435 -226 m  435 -256 l  466 -256 l  466 -226 l  435 -226 l  p
435 0 m  435 -187 l  466 -187 l  466 0 l  435 0 l  p ef
503 -80 m  503 -108 l  589 -108 l  589 -80 l  503 -80 l  p ef
632 0 m  632 -26 l  694 -26 l  694 -213 l  639 -174 l  639 -204 l  696 -243 l 
725 -243 l  725 -26 l  784 -26 l  784 0 l  632 0 l  p ef
896 -91 m  896 -75 894 -60 892 -45 ct 890 -31 886 -17 881 -3 ct 875 10 869 23 861 36 ct 
853 49 843 61 832 73 ct 802 73 l  813 61 822 49 830 36 ct 838 23 844 10 849 -3 ct 
855 -17 858 -31 861 -46 ct 863 -60 864 -76 864 -91 ct 864 -107 863 -123 861 -137 ct 
858 -152 855 -166 849 -180 ct 844 -193 838 -206 830 -219 ct 822 -232 813 -244 802 -256 ct 
832 -256 l  843 -244 853 -232 861 -219 ct 869 -206 875 -193 881 -180 ct 886 -166 890 -152 892 -138 ct 
894 -123 896 -108 896 -92 ct 896 -91 l  p ef
pom
pum
11267 13997 t
95 -1 m  91 0 86 1 81 2 ct 76 3 71 3 64 3 ct 39 3 27 -11 27 -39 ct 27 -164 l  5 -164 l 
5 -187 l  28 -187 l  37 -228 l  58 -228 l  58 -187 l  92 -187 l  92 -164 l 
58 -164 l  58 -46 l  58 -37 59 -31 62 -27 ct 65 -23 70 -22 78 -22 ct 81 -22 83 -22 86 -22 ct 
89 -23 92 -23 95 -24 ct 95 -1 l  p ef
115 0 m  115 -22 l  121 -35 128 -47 136 -58 ct 145 -68 154 -77 163 -85 ct 172 -94 181 -101 191 -109 ct 
200 -116 208 -123 215 -130 ct 223 -137 229 -145 233 -152 ct 238 -160 240 -169 240 -179 ct 
240 -186 239 -192 237 -197 ct 235 -202 232 -207 228 -210 ct 224 -214 219 -217 214 -218 ct 
208 -220 202 -221 196 -221 ct 189 -221 184 -220 178 -218 ct 173 -217 168 -214 164 -211 ct 
159 -207 156 -203 153 -198 ct 150 -193 149 -187 148 -180 ct 116 -183 l  117 -192 120 -200 123 -208 ct 
127 -215 132 -222 139 -228 ct 146 -234 154 -238 163 -242 ct 172 -245 183 -247 196 -247 ct 
208 -247 218 -245 228 -242 ct 237 -239 245 -235 252 -229 ct 258 -224 263 -217 267 -209 ct 
270 -200 272 -191 272 -180 ct 272 -172 270 -164 267 -157 ct 264 -149 261 -142 256 -136 ct 
251 -129 245 -123 239 -116 ct 232 -110 226 -104 219 -98 ct 212 -92 204 -86 197 -81 ct 
190 -75 184 -69 177 -63 ct 171 -57 165 -51 160 -45 ct 155 -39 152 -33 149 -26 ct 
276 -26 l  276 0 l  115 0 l  p ef
314 -92 m  314 -108 315 -123 318 -138 ct 320 -152 324 -166 329 -180 ct 334 -193 341 -206 349 -219 ct 
357 -232 366 -244 378 -256 ct 407 -256 l  397 -244 387 -232 379 -219 ct 372 -206 365 -193 360 -180 ct 
355 -166 351 -152 349 -137 ct 346 -123 345 -107 345 -91 ct 345 -76 346 -60 349 -46 ct 
351 -31 355 -17 360 -3 ct 365 10 372 23 379 36 ct 387 49 397 61 407 73 ct 378 73 l 
366 61 357 49 349 36 ct 341 23 334 10 329 -3 ct 324 -17 320 -31 318 -45 ct 315 -60 314 -75 314 -91 ct 
314 -92 l  p ef
435 -226 m  435 -256 l  466 -256 l  466 -226 l  435 -226 l  p
435 0 m  435 -187 l  466 -187 l  466 0 l  435 0 l  p ef
503 -80 m  503 -108 l  589 -108 l  589 -80 l  503 -80 l  p ef
632 0 m  632 -26 l  694 -26 l  694 -213 l  639 -174 l  639 -204 l  696 -243 l 
725 -243 l  725 -26 l  784 -26 l  784 0 l  632 0 l  p ef
896 -91 m  896 -75 894 -60 892 -45 ct 890 -31 886 -17 881 -3 ct 875 10 869 23 861 36 ct 
853 49 843 61 832 73 ct 802 73 l  813 61 822 49 830 36 ct 838 23 844 10 849 -3 ct 
855 -17 858 -31 861 -46 ct 863 -60 864 -76 864 -91 ct 864 -107 863 -123 861 -137 ct 
858 -152 855 -166 849 -180 ct 844 -193 838 -206 830 -219 ct 822 -232 813 -244 802 -256 ct 
832 -256 l  843 -244 853 -232 861 -219 ct 869 -206 875 -193 881 -180 ct 886 -166 890 -152 892 -138 ct 
894 -123 896 -108 896 -92 ct 896 -91 l  p ef
pom
pum
11267 11798 t
95 -1 m  91 0 86 1 81 2 ct 76 3 71 3 64 3 ct 39 3 27 -11 27 -39 ct 27 -164 l  5 -164 l 
5 -187 l  28 -187 l  37 -228 l  58 -228 l  58 -187 l  92 -187 l  92 -164 l 
58 -164 l  58 -46 l  58 -37 59 -31 62 -27 ct 65 -23 70 -22 78 -22 ct 81 -22 83 -22 86 -22 ct 
89 -23 92 -23 95 -24 ct 95 -1 l  p ef
124 0 m  124 -26 l  186 -26 l  186 -213 l  131 -174 l  131 -204 l  188 -243 l 
217 -243 l  217 -26 l  276 -26 l  276 0 l  124 0 l  p ef
314 -92 m  314 -108 315 -123 318 -138 ct 320 -152 324 -166 329 -180 ct 334 -193 341 -206 349 -219 ct 
357 -232 366 -244 378 -256 ct 407 -256 l  397 -244 387 -232 379 -219 ct 372 -206 365 -193 360 -180 ct 
355 -166 351 -152 349 -137 ct 346 -123 345 -107 345 -91 ct 345 -76 346 -60 349 -46 ct 
351 -31 355 -17 360 -3 ct 365 10 372 23 379 36 ct 387 49 397 61 407 73 ct 378 73 l 
366 61 357 49 349 36 ct 341 23 334 10 329 -3 ct 324 -17 320 -31 318 -45 ct 315 -60 314 -75 314 -91 ct 
314 -92 l  p ef
435 -226 m  435 -256 l  466 -256 l  466 -226 l  435 -226 l  p
435 0 m  435 -187 l  466 -187 l  466 0 l  435 0 l  p ef
503 -80 m  503 -108 l  589 -108 l  589 -80 l  503 -80 l  p ef
632 0 m  632 -26 l  694 -26 l  694 -213 l  639 -174 l  639 -204 l  696 -243 l 
725 -243 l  725 -26 l  784 -26 l  784 0 l  632 0 l  p ef
896 -91 m  896 -75 894 -60 892 -45 ct 890 -31 886 -17 881 -3 ct 875 10 869 23 861 36 ct 
853 49 843 61 832 73 ct 802 73 l  813 61 822 49 830 36 ct 838 23 844 10 849 -3 ct 
855 -17 858 -31 861 -46 ct 863 -60 864 -76 864 -91 ct 864 -107 863 -123 861 -137 ct 
858 -152 855 -166 849 -180 ct 844 -193 838 -206 830 -219 ct 822 -232 813 -244 802 -256 ct 
832 -256 l  843 -244 853 -232 861 -219 ct 869 -206 875 -193 881 -180 ct 886 -166 890 -152 892 -138 ct 
894 -123 896 -108 896 -92 ct 896 -91 l  p ef
pom
1.000 0.203 0.203 c 11284 12070 m  11360 12069 l  ps
11411 12069 m  11487 12068 l  ps
11538 12068 m  11607 12067 l  ps
11612 12186 m  11588 12217 l  12006 12064 l  11586 11917 l  11608 11948 l 
11627 11983 l  11639 12023 l  11644 12065 l  11641 12108 l  11629 12149 l 
11612 12186 l  p ef
11919 13545 m  11866 13545 l  ps
11813 13544 m  11760 13544 l  ps
11707 13543 m  11654 13543 l  ps
11600 13542 m  11571 13542 l  ps
11568 13423 m  11592 13392 l  11172 13539 l  11590 13692 l  11568 13662 l 
11550 13626 l  11538 13586 l  11534 13544 l  11538 13501 l  11550 13460 l 
11568 13423 l  p ef
0 7537 t 
pom
count op_count sub {pop} repeat countdictstack dict_count sub {end} repeat b4_inc_state restore
%%PageTrailer
%%Trailer
%%EOF
